<?xml version="1.0" encoding="UTF-8" standalone="no"?>
<svg
   xmlns:dc="http://purl.org/dc/elements/1.1/"
   xmlns:cc="http://creativecommons.org/ns#"
   xmlns:rdf="http://www.w3.org/1999/02/22-rdf-syntax-ns#"
   xmlns:svg="http://www.w3.org/2000/svg"
   xmlns="http://www.w3.org/2000/svg"
   xmlns:sodipodi="http://sodipodi.sourceforge.net/DTD/sodipodi-0.dtd"
   xmlns:inkscape="http://www.inkscape.org/namespaces/inkscape"
   width="297mm"
   height="210mm"
   id="svg5112"
   version="1.1"
   inkscape:version="0.92.1 r15371"
   sodipodi:docname="Storage_Box_half_A4.svg">
  <metadata
     id="metadata6048">
    <rdf:RDF>
      <cc:Work
         rdf:about="">
        <dc:format>image/svg+xml</dc:format>
        <dc:type
           rdf:resource="http://purl.org/dc/dcmitype/StillImage" />
        <dc:title />
      </cc:Work>
    </rdf:RDF>
  </metadata>
  <sodipodi:namedview
     pagecolor="#ffffff"
     bordercolor="#666666"
     borderopacity="1"
     objecttolerance="10"
     gridtolerance="10"
     guidetolerance="10"
     inkscape:pageopacity="0"
     inkscape:pageshadow="2"
     inkscape:window-width="1440"
     inkscape:window-height="850"
     id="namedview6046"
     showgrid="false"
     showguides="true"
     inkscape:zoom="0.5"
     inkscape:cx="507.00795"
     inkscape:cy="654.26423"
     inkscape:window-x="-8"
     inkscape:window-y="-8"
     inkscape:window-maximized="1"
     inkscape:current-layer="g5804"
     inkscape:document-units="px"
     units="mm" />
  <desc
     id="desc5114">/home/avernois/TÃ©lÃ©chargements/laser/Compartment_Storage_Box.dxf - scale = 1.000000, origin = (0.000000, 0.000000), auto = False</desc>
  <defs
     id="defs5116">
    <marker
       id="DistanceX"
       orient="auto"
       refX="0"
       refY="0"
       style="overflow:visible">
      <path
         d="M 3.2,-3.2 -3.2,3.2 M 0,-5.3333333 V 5.3333333"
         style="stroke:#000000;stroke-width:0.53333336"
         id="path5119"
         inkscape:connector-curvature="0" />
    </marker>
    <pattern
       height="8"
       id="Hatch"
       patternUnits="userSpaceOnUse"
       width="8"
       x="0"
       y="0">
      <path
         d="M8 4 l-4,4"
         linecap="square"
         stroke="#000000"
         stroke-width="0.25"
         id="path5122" />
      <path
         d="M6 2 l-4,4"
         linecap="square"
         stroke="#000000"
         stroke-width="0.25"
         id="path5124" />
      <path
         d="M4 0 l-4,4"
         linecap="square"
         stroke="#000000"
         stroke-width="0.25"
         id="path5126" />
    </pattern>
    <symbol
       id="$MODEL_SPACE" />
    <symbol
       id="$PAPER_SPACE" />
  </defs>
  <g
     inkscape:groupmode="layer"
     inkscape:label="0"
     id="g5130"
     transform="translate(0,-328.8189)" />
  <g
     inkscape:groupmode="layer"
     inkscape:label="LAYER1"
     id="g5132"
     transform="translate(0,-328.8189)">
    <path
       d="m 2133.3927,1046.2061 h 56.693"
       style="fill:none;stroke:#000000;stroke-width:1.06666672;stroke-linecap:round"
       id="path5188"
       inkscape:connector-curvature="0" />
    <path
       d="M 2190.0857,792.41079 V 554.86749"
       style="fill:none;stroke:#000000;stroke-width:1.06666672;stroke-linecap:round"
       id="path5190"
       inkscape:connector-curvature="0" />
    <path
       d="m 2190.0857,554.86749 h -56.693"
       style="fill:none;stroke:#000000;stroke-width:1.06666672;stroke-linecap:round"
       id="path5192"
       inkscape:connector-curvature="0" />
    <path
       d="M 2001.1093,876.12733 V 1046.2061"
       style="fill:none;stroke:#000000;stroke-width:1.06666672;stroke-linecap:round"
       id="path5194"
       inkscape:connector-curvature="0" />
    <path
       d="M 2133.3927,554.86749 V 541.63914"
       style="fill:none;stroke:#000000;stroke-width:1.06666672;stroke-linecap:round"
       id="path5196"
       inkscape:connector-curvature="0" />
    <path
       d="m 2131.503,539.74938 h -71.8111"
       style="fill:none;stroke:#000000;stroke-width:1.06666672;stroke-linecap:round"
       id="path5198"
       inkscape:connector-curvature="0" />
    <path
       d="m 2057.8022,541.63914 v 13.22835"
       style="fill:none;stroke:#000000;stroke-width:1.06666672;stroke-linecap:round"
       id="path5200"
       inkscape:connector-curvature="0" />
    <path
       d="m 2059.6919,1061.3242 h 71.8111"
       style="fill:none;stroke:#000000;stroke-width:1.06666672;stroke-linecap:round"
       id="path5202"
       inkscape:connector-curvature="0" />
    <path
       d="m 2133.3927,1059.4344 v -13.2283"
       style="fill:none;stroke:#000000;stroke-width:1.06666672;stroke-linecap:round"
       id="path5204"
       inkscape:connector-curvature="0" />
    <path
       d="m 2057.8022,1046.2061 v 13.2283"
       style="fill:none;stroke:#000000;stroke-width:1.06666672;stroke-linecap:round"
       id="path5206"
       inkscape:connector-curvature="0" />
    <path
       d="m 2057.8022,554.86749 h -56.6929"
       style="fill:none;stroke:#000000;stroke-width:1.06666672;stroke-linecap:round"
       id="path5208"
       inkscape:connector-curvature="0" />
    <path
       d="m 2001.1093,1046.2061 h 56.6929"
       style="fill:none;stroke:#000000;stroke-width:1.06666672;stroke-linecap:round"
       id="path5210"
       inkscape:connector-curvature="0" />
    <path
       d="m 1987.881,876.12733 h 13.2283"
       style="fill:none;stroke:#000000;stroke-width:1.06666672;stroke-linecap:round"
       id="path5212"
       inkscape:connector-curvature="0" />
    <path
       d="M 2001.1093,724.94623 H 1987.881"
       style="fill:none;stroke:#000000;stroke-width:1.06666672;stroke-linecap:round"
       id="path5214"
       inkscape:connector-curvature="0" />
    <path
       d="M 1985.9911,726.83599 V 874.23757"
       style="fill:none;stroke:#000000;stroke-width:1.06666672;stroke-linecap:round"
       id="path5216"
       inkscape:connector-curvature="0" />
    <path
       d="M 2001.1093,554.86749 V 724.94623"
       style="fill:none;stroke:#000000;stroke-width:1.06666672;stroke-linecap:round"
       id="path5218"
       inkscape:connector-curvature="0" />
    <path
       d="M 2190.0857,1046.2061 V 808.66276"
       style="fill:none;stroke:#000000;stroke-width:1.06666672;stroke-linecap:round"
       id="path5220"
       inkscape:connector-curvature="0" />
    <path
       d="m 2059.6919,539.74938 a 1.8897643,1.8897643 0 0 0 -1.8897,1.88976"
       style="fill:none;stroke:#000000;stroke-width:1.06666672;stroke-linecap:round"
       id="path5222"
       inkscape:connector-curvature="0" />
    <path
       d="m 2133.3927,541.63914 a 1.8897643,1.8897643 0 0 0 -1.8897,-1.88976"
       style="fill:none;stroke:#000000;stroke-width:1.06666672;stroke-linecap:round"
       id="path5224"
       inkscape:connector-curvature="0" />
    <path
       d="m 2057.8022,1059.4344 a 1.8897643,1.8897643 0 0 0 1.8897,1.8898"
       style="fill:none;stroke:#000000;stroke-width:1.06666672;stroke-linecap:round"
       id="path5226"
       inkscape:connector-curvature="0" />
    <path
       d="m 2131.503,1061.3242 a 1.8897643,1.8897643 0 0 0 1.8897,-1.8898"
       style="fill:none;stroke:#000000;stroke-width:1.06666672;stroke-linecap:round"
       id="path5228"
       inkscape:connector-curvature="0" />
    <path
       d="m 1987.881,724.94623 a 1.8897643,1.8897643 0 0 0 -1.8899,1.88976"
       style="fill:none;stroke:#000000;stroke-width:1.06666672;stroke-linecap:round"
       id="path5230"
       inkscape:connector-curvature="0" />
    <path
       d="m 1985.9911,874.23757 a 1.8897643,1.8897643 0 0 0 1.8899,1.88976"
       style="fill:none;stroke:#000000;stroke-width:1.06666672;stroke-linecap:round"
       id="path5232"
       inkscape:connector-curvature="0" />
    <path
       d="m 2133.3927,498.17457 h 56.693"
       style="fill:none;stroke:#000000;stroke-width:1.06666672;stroke-linecap:round"
       id="path5296"
       inkscape:connector-curvature="0" />
    <path
       d="M 2190.0857,244.3793 V 6.8359915"
       style="fill:none;stroke:#000000;stroke-width:1.06666672;stroke-linecap:round"
       id="path5298"
       inkscape:connector-curvature="0" />
    <path
       d="m 2190.0857,6.8359915 h -56.693"
       style="fill:none;stroke:#000000;stroke-width:1.06666672;stroke-linecap:round"
       id="path5300"
       inkscape:connector-curvature="0" />
    <path
       d="M 2001.1093,328.09584 V 498.17457"
       style="fill:none;stroke:#000000;stroke-width:1.06666672;stroke-linecap:round"
       id="path5302"
       inkscape:connector-curvature="0" />
    <path
       d="M 2133.3927,6.8359915 V -6.3923541"
       style="fill:none;stroke:#000000;stroke-width:1.06666672;stroke-linecap:round"
       id="path5304"
       inkscape:connector-curvature="0" />
    <path
       d="m 2131.503,-8.2821184 h -71.8111"
       style="fill:none;stroke:#000000;stroke-width:1.06666672;stroke-linecap:round"
       id="path5306"
       inkscape:connector-curvature="0" />
    <path
       d="M 2057.8022,-6.3923541 V 6.8359915"
       style="fill:none;stroke:#000000;stroke-width:1.06666672;stroke-linecap:round"
       id="path5308"
       inkscape:connector-curvature="0" />
    <path
       d="m 2059.6919,513.29268 h 71.8111"
       style="fill:none;stroke:#000000;stroke-width:1.06666672;stroke-linecap:round"
       id="path5310"
       inkscape:connector-curvature="0" />
    <path
       d="M 2133.3927,511.40292 V 498.17457"
       style="fill:none;stroke:#000000;stroke-width:1.06666672;stroke-linecap:round"
       id="path5312"
       inkscape:connector-curvature="0" />
    <path
       d="m 2057.8022,498.17457 v 13.22835"
       style="fill:none;stroke:#000000;stroke-width:1.06666672;stroke-linecap:round"
       id="path5314"
       inkscape:connector-curvature="0" />
    <path
       d="m 2057.8022,6.8359915 h -56.6929"
       style="fill:none;stroke:#000000;stroke-width:1.06666672;stroke-linecap:round"
       id="path5316"
       inkscape:connector-curvature="0" />
    <path
       d="m 2001.1093,498.17457 h 56.6929"
       style="fill:none;stroke:#000000;stroke-width:1.06666672;stroke-linecap:round"
       id="path5318"
       inkscape:connector-curvature="0" />
    <path
       d="m 1987.881,328.09584 h 13.2283"
       style="fill:none;stroke:#000000;stroke-width:1.06666672;stroke-linecap:round"
       id="path5320"
       inkscape:connector-curvature="0" />
    <path
       d="M 2001.1093,176.91473 H 1987.881"
       style="fill:none;stroke:#000000;stroke-width:1.06666672;stroke-linecap:round"
       id="path5322"
       inkscape:connector-curvature="0" />
    <path
       d="M 1985.9911,178.80449 V 326.20607"
       style="fill:none;stroke:#000000;stroke-width:1.06666672;stroke-linecap:round"
       id="path5324"
       inkscape:connector-curvature="0" />
    <path
       d="M 2001.1093,6.8359915 V 176.91473"
       style="fill:none;stroke:#000000;stroke-width:1.06666672;stroke-linecap:round"
       id="path5326"
       inkscape:connector-curvature="0" />
    <path
       d="M 2190.0857,498.17457 V 260.63126"
       style="fill:none;stroke:#000000;stroke-width:1.06666672;stroke-linecap:round"
       id="path5328"
       inkscape:connector-curvature="0" />
    <path
       d="m 2059.6919,-8.2821184 a 1.8897643,1.8897643 0 0 0 -1.8897,1.8897643"
       style="fill:none;stroke:#000000;stroke-width:1.06666672;stroke-linecap:round"
       id="path5330"
       inkscape:connector-curvature="0" />
    <path
       d="m 2133.3927,-6.3923541 a 1.8897643,1.8897643 0 0 0 -1.8897,-1.8897643"
       style="fill:none;stroke:#000000;stroke-width:1.06666672;stroke-linecap:round"
       id="path5332"
       inkscape:connector-curvature="0" />
    <path
       d="m 2057.8022,511.40292 a 1.8897643,1.8897643 0 0 0 1.8897,1.88976"
       style="fill:none;stroke:#000000;stroke-width:1.06666672;stroke-linecap:round"
       id="path5334"
       inkscape:connector-curvature="0" />
    <path
       d="m 2131.503,513.29268 a 1.8897643,1.8897643 0 0 0 1.8897,-1.88976"
       style="fill:none;stroke:#000000;stroke-width:1.06666672;stroke-linecap:round"
       id="path5336"
       inkscape:connector-curvature="0" />
    <path
       d="m 1987.881,176.91473 a 1.8897643,1.8897643 0 0 0 -1.8899,1.88976"
       style="fill:none;stroke:#000000;stroke-width:1.06666672;stroke-linecap:round"
       id="path5338"
       inkscape:connector-curvature="0" />
    <path
       d="m 1985.9911,326.20607 a 1.8897643,1.8897643 0 0 0 1.8899,1.88977"
       style="fill:none;stroke:#000000;stroke-width:1.06666672;stroke-linecap:round"
       id="path5340"
       inkscape:connector-curvature="0" />
  </g>
  <g
     inkscape:groupmode="layer"
     inkscape:label="LAYER2"
     id="g5582"
     transform="translate(0,-328.8189)">
    <path
       d="m 2190.0857,808.66276 h -95.0551"
       style="fill:none;stroke:#000000;stroke-width:1.06666672;stroke-linecap:round"
       id="path5590"
       inkscape:connector-curvature="0" />
    <path
       d="M 2095.0306,808.66276 V 792.41079"
       style="fill:none;stroke:#000000;stroke-width:1.06666672;stroke-linecap:round"
       id="path5592"
       inkscape:connector-curvature="0" />
    <path
       d="m 2095.0306,792.41079 h 95.0551"
       style="fill:none;stroke:#000000;stroke-width:1.06666672;stroke-linecap:round"
       id="path5594"
       inkscape:connector-curvature="0" />
    <path
       d="m 2190.0857,260.63126 h -95.0551"
       style="fill:none;stroke:#000000;stroke-width:1.06666672;stroke-linecap:round"
       id="path5700"
       inkscape:connector-curvature="0" />
    <path
       d="M 2095.0306,260.63126 V 244.3793"
       style="fill:none;stroke:#000000;stroke-width:1.06666672;stroke-linecap:round"
       id="path5702"
       inkscape:connector-curvature="0" />
    <path
       d="m 2095.0306,244.3793 h 95.0551"
       style="fill:none;stroke:#000000;stroke-width:1.06666672;stroke-linecap:round"
       id="path5704"
       inkscape:connector-curvature="0" />
  </g>
  <g
     inkscape:groupmode="layer"
     inkscape:label="STANDARD"
     id="g5804"
     transform="translate(0,-328.8189)">
    <path
       id="path5854"
       style="fill:none;stroke:#000000;stroke-width:1.06666672;stroke-linecap:round"
       d="m 393.61888,838.51452 4.6e-4,-56.69239 M 0.54098936,1065.2859 v 56.6929 m -6e-5,-324.47166 H 113.92676 M 0.54092936,1106.2937 H 113.92676 m 279.69258,-41.0078 h -15.68503 m 0,0 V 838.51452 m 0,0 h 15.68503 m 0,283.46428 v -56.6929 M 0.54098936,781.82213 v 56.69239 M 113.93431,1121.9788 h 279.68503 m 0,-340.15667 H 113.93431 m -0.008,0 v 15.68501 m 0,324.47166 v -15.6851 M 0.54093936,1065.2859 H 16.226059 m 0,0 V 838.51452 m 0,0 H 0.54093936"
       inkscape:connector-curvature="0" />
    <path
       id="path5902"
       style="fill:none;stroke:#000000;stroke-width:1.06666672;stroke-linecap:round"
       d="m 356.1336,573.19124 c -10e-6,-4.1748 -3.38431,-7.55914 -7.55905,-7.55914 m 8.31496,-196.53513 c 0,-4.17475 -3.3843,-7.55905 -7.55904,-7.55905 m 15.11808,219.9684 h 30.23618 m -38.55113,-8.31508 c -10e-6,4.59229 3.72272,8.31508 8.31495,8.31508 m -7.55904,-212.40935 c 0,4.17474 3.38429,7.55904 7.55904,7.55904 m 0,0 15.11848,-9e-5 m 15.11759,115.2754 c -10e-6,1.04366 -0.84604,1.88971 -1.8897,1.88975 m 0,-75.59045 c 1.04366,4e-5 1.8897,0.8461 1.8897,1.88976 M 2.4231543,493.82107 c -1.0436886,0 -1.88975753,-0.84607 -1.88976753,-1.88975 m 0,-71.81094 c 0,-1.04369 0.84607893,-1.88976 1.88976753,-1.88976 M 15.651476,361.53778 H 348.24949 m 0.32506,204.09424 h -67.2755 m 0,0 v -15.11809 m 98.26798,-173.85801 -4.7e-4,41.5747 m 15.11806,1.88976 v 71.81094 m -15.11806,-73.7007 h 13.22836 m 0,75.59045 H 379.56656 M 15.651476,418.23062 V 361.53778 M 2.4231543,418.23062 H 15.651476 M 0.53338677,491.93132 V 420.12038 M 15.651476,493.82107 H 2.4231543 m 377.1434057,0 v 56.69277 h 15.11817 v 30.99248 M 15.651476,550.51393 V 493.82107 M 280.21807,550.51393 H 15.651476"
       inkscape:connector-curvature="0"
       sodipodi:nodetypes="cccccccccccccccccccccccccccccccccccccccccccccccccc" />
    <path
       id="path5836-8-9-4"
       style="fill:none;stroke:#000000;stroke-width:1.06666672;stroke-linecap:round"
       d="m 284.00515,164.99582 h 56.69282 m -340.15704064,0 H 57.233729 m -56.68519964,0.01 v 56.6926 M 215.97415,353.97876 h 124.72382 m 0,-132.28284 v -56.6926 m -56.69282,-15.118 h -67.2755 m 67.2755,15.118 v -15.118 m -226.771421,15.118 v -15.118 m 267.779241,71.8106 v 75.59015 m 0,0 h 15.685 m 0,-75.59015 h -15.685 m 15.685,132.28284 v -56.69269 m -340.14944064,0 H 16.233529 m 0,0 v -75.59015 m 0,0 H 0.54852936 m 0,75.59015 v 56.69269 M 124.50931,149.88532 H 57.233729 M 1.0818294,353.97876 H 123.85921 m 16.199,-15.11771 h 60.47234 m 0,0 a 7.5590454,7.5590148 0 0 1 7.5591,7.55896 m -75.59044,0 a 7.5590454,7.5590148 0 0 1 7.559,-7.55896 m -7.9899,-196.53493 a 8.3149506,8.314917 0 0 1 8.315,-8.3149 m 0,0 h 60.47234 m 0,0 a 8.3149506,8.314917 0 0 1 8.3149,8.3149 m 7.5591,7.559 a 7.5590454,7.5590148 0 0 1 -7.5591,-7.559 m -77.10224,0 a 7.5590454,7.5590148 0 0 1 -7.559,7.559 m 91.13934,204.09394 a 7.5590454,7.5590148 0 0 1 -7.559,-7.55905 m -75.59044,0 a 7.5590454,7.5590148 0 0 1 -7.5591,7.55905"
       inkscape:connector-curvature="0" />
    <path
       id="path5836-8-9-4-7"
       style="fill:none;stroke:#000000;stroke-width:1.06666672;stroke-linecap:round"
       d="m 631.71412,164.99517 h 56.69294 m -340.15715,0 h 56.69288 m -56.68528,0.008 v 56.6929 m 215.42567,132.28288 h 109.03864 v -15.11839 l 15.68524,2.1e-4 v -41.5747 m 0,-75.5905 v -56.6929 M 631.71412,149.88456 H 404.94279 m 226.77133,15.11811 v -15.11811 m -226.77133,15.11811 v -15.11811 m 267.77917,71.81101 -1.4e-4,75.5905 m 0,0 h 15.68524 m 0,-75.5905 h -15.6851 m -324.46445,75.5905 h 15.68547 m 0,0 -4.7e-4,-75.5905 m 0,0 h -15.685 m 0,75.5905 v 41.57449 h 15.41882 0.5333 l -0.26665,15.11839 h 107.62521 m 16.19904,-15.11798 h 60.47236 m 0,0 c 4.17472,0 7.55901,3.38427 7.55904,7.559 m -75.59045,0 c 3e-5,-4.17473 3.38432,-7.559 7.55905,-7.559 m 75.59046,15.11808 c -4.17476,1e-5 -7.55907,-3.38431 -7.55906,-7.55908 m -75.59045,0 c 10e-6,4.17476 -3.38429,7.55908 -7.55904,7.55908"
       inkscape:connector-curvature="0"
       sodipodi:nodetypes="ccccccccccccccccccccccccccccccccccccccccccccccc" />
    <path
       id="path5854-1"
       style="fill:none;stroke:#000000;stroke-width:1.06666672;stroke-linecap:round"
       d="m 397.39926,1065.2864 -4e-4,56.6924 m 393.07909,-283.46408 -3.2e-4,-41.00803 -113.38615,1.3e-4 m 0,308.78698 113.38615,-10e-5 3.2e-4,-41.0073 M 397.39885,838.51472 h 15.685 m 0,0 v 226.77168 m 0,0 h -15.685 m 0,-283.46458 v 56.6929 m 279.68508,-56.6929 H 397.39885 m 0,340.15698 h 279.68508 m 0.008,0 v -15.685 m 0,-324.47198 v 15.685 m 113.38647,41.0079 h -15.6851 m 0,0 v 226.77168 m 0,0 h 15.6851"
       inkscape:connector-curvature="0"
       sodipodi:nodetypes="cccccccccccccccccccccccccccccc" />
    <path
       id="path5836-8-9-4-9"
       style="fill:none;stroke:#000000;stroke-width:1.06666672;stroke-linecap:round"
       d="m 991.04078,649.10696 v 56.6929 m 0,-340.1575 v 56.69292 m -0.01,-56.68537 H 934.33984 M 802.05686,581.0759 v 124.72396 m 132.28338,0 h 56.69294 m 15.11812,-56.6929 v -67.27561 m -15.11812,67.27561 h 15.11812 M 991.03318,422.33528 h 15.11812 m -71.81106,267.77958 h -75.5905 m 0,0 v 15.685 m 75.5905,0 v -15.685 m -132.28338,15.685 h 56.69288 m 0,-340.14995 v 15.68505 m 0,0 h 75.5905 m 0,0 v -15.68505 m -75.5905,0 h -56.69288 m 204.09444,123.96097 v -67.2756 M 802.05686,366.18329 v 122.7775 m -15.1182,16.19906 v 60.47244 m 0,0 a 7.5590549,7.5590549 0 0 0 7.5591,7.55905 m 0,-75.59055 a 7.5590549,7.5590549 0 0 0 -7.5591,7.55906 m 211.65362,-7.98992 a 8.3149611,8.3149611 0 0 0 -8.315,8.31497 m 0,0 v 60.47244 m 0,0 a 8.3149611,8.3149611 0 0 0 8.315,8.31495 m 7.55902,7.55906 a 7.5590549,7.5590549 0 0 0 -7.55902,-7.55906 m 0,-77.10236 a 7.5590549,7.5590549 0 0 0 7.55902,-7.55905 M 802.05686,580.7504 a 7.5590549,7.5590549 0 0 0 -7.5591,-7.55906 m 0,-75.59055 a 7.5590549,7.5590549 0 0 0 7.5591,-7.55905"
       inkscape:connector-curvature="0" />
    <path
       id="path5876-15-5"
       style="fill:none;stroke:#000000;stroke-width:1.06666672;stroke-linecap:round"
       d="m 0.54098936,789.38026 v -15.1181 H 15.650789 v -56.69291 m 99.357001,-132.2834 h 264.56689 m 0,0 v 56.6929 m -363.923891,0 2e-4,-56.6929 m 363.923691,56.6929 h 13.2284 m 1.8898,1.8897 v 71.8111 m -1.8898,1.8897 h -13.2284 m 0,0 v 56.69291 M 2.4224894,641.97875 H 15.650789 m 0,75.5905 H 2.4224894 m -1.88970004,-1.8897 v -71.8111 M 113.92679,570.16775 v 15.1181 M 46.651189,570.16775 H 113.92679 M 379.57468,774.26216 H 46.976289 M 394.69288,715.67955 a 1.8897643,1.8897643 0 0 1 -1.8898,1.8897 m 0,-75.5905 a 1.8897643,1.8897643 0 0 1 1.8898,1.8897 M 2.4224894,717.56925 a 1.8897643,1.8897643 0 0 1 -1.88970004,-1.8897 m 0,-71.8111 a 1.8897643,1.8897643 0 0 1 1.88970004,-1.8897 M 30.777189,789.38026 H 0.54098936 m 37.79519964,-7.559 a 7.5590549,7.5590549 0 0 1 -7.559,7.559 m 8.3149,-211.65351 a 8.3149611,8.3149611 0 0 1 -8.3149,8.315 m 0,0 h -15.1262 m 22.6852,195.77951 a 7.5590549,7.5590549 0 0 1 7.5591,-7.5591 m -6.8032,-196.53541 a 7.5590549,7.5590549 0 0 1 7.5591,-7.559"
       inkscape:connector-curvature="0" />
    <path
       inkscape:connector-curvature="0"
       id="path5876-15-5-8"
       style="fill:none;stroke:#000000;stroke-width:1.06666672;stroke-linecap:round"
       d="M 792.62418,789.38033 V 774.26218 H 777.51433 V 717.56932 M 678.15737,585.28586 H 413.59048 m 0,0 v 56.69291 m 363.92385,0 -2.3e-4,-56.69291 m -363.92362,56.69291 h -13.2284 m -1.8898,1.88976 v 71.81102 m 1.8898,1.88977 h 13.2284 m 0,0 v 56.6929 M 790.74263,641.97877 h -13.2283 m 0,75.59055 h 13.2283 m 1.8897,-1.88977 V 643.86853 M 679.23835,570.16774 v 15.11812 m 67.27559,-15.11812 H 679.23835 M 413.59048,774.26222 H 746.18887 M 398.47228,715.67955 a 1.8897643,1.8897643 0 0 0 1.8898,1.88977 m 0,-75.59055 a 1.8897643,1.8897643 0 0 0 -1.8898,1.88976 m 392.27035,73.70079 a 1.8897643,1.8897643 0 0 0 1.8897,-1.88977 m 0,-71.81102 a 1.8897643,1.8897643 0 0 0 -1.8897,-1.88976 m -28.35468,147.40156 h 30.23623 m -37.79528,-7.55905 a 7.5590549,7.5590549 0 0 0 7.55905,7.55905 M 754.073,577.72679 a 8.3149611,8.3149611 0 0 0 8.31495,8.31497 m 0,0 h 15.12615 m -22.6852,195.77952 a 7.5590549,7.5590549 0 0 0 -7.55905,-7.55906 M 754.073,577.72679 a 7.5590549,7.5590549 0 0 0 -7.55906,-7.55905" />
    <path
       id="path5836-8-9-4-9-1"
       style="fill:none;stroke:#000000;stroke-width:1.06666672;stroke-linecap:round"
       d="m 991.04078,993.044 v 56.6929 m 0,-340.15742 v 56.6929 m -0.01,-56.6854 h -56.6929 M 802.05689,925.013 v 124.7239 m 132.28339,0 h 56.6929 m 15.11812,-56.6929 v -67.2756 -92.22042 -67.2756 M 991.03318,993.044 h 15.11812 M 991.03318,766.27238 h 15.11812 m -71.81102,267.77952 h -75.59053 m 0,0 v 15.685 m 75.59053,0 v -15.685 m -132.28339,15.685 h 56.69286 m 0,-340.14992 v 15.6851 m 0,0 h 75.59053 m 0,0 v -15.6851 m -75.59053,0 h -56.69286 m 0,0.5334 v 122.7775 m -15.1182,16.19906 v 60.47246 m 0,0 a 7.5590549,7.5590549 0 0 0 7.5591,7.559 m 0,-75.59053 a 7.5590549,7.5590549 0 0 0 -7.5591,7.55907 m 15.1182,75.59056 a 7.5590549,7.5590549 0 0 0 -7.5591,-7.5591 m 0,-75.59053 a 7.5590549,7.5590549 0 0 0 7.5591,-7.55904"
       inkscape:connector-curvature="0" />
    <path
       id="path5902-2"
       style="fill:none;stroke:#000000;stroke-width:1.06666672;stroke-linecap:round"
       d="m 440.78733,573.19121 a 7.5590445,7.5591505 0 0 1 7.55905,-7.55914 m -8.31496,-196.53509 a 7.5590451,7.5590461 0 0 1 7.55904,-7.5591 M 432.47238,581.50629 H 402.2362 m 38.55113,-8.31508 a 8.3149496,8.3150662 0 0 1 -8.31495,8.31508 m 7.55904,-212.40931 a 7.5590451,7.5590461 0 0 1 -7.55904,7.559 m 0,0 -15.11848,-2e-4 m -15.11759,115.27551 a 1.8897618,1.889762 0 0 0 1.8897,1.88975 m 0,-75.59045 a 1.8897618,1.889762 0 0 0 -1.8897,1.88976 m 392.26145,73.70069 a 1.8897618,1.889762 0 0 0 1.8898,-1.88975 m 0,-71.81094 a 1.8897618,1.889762 0 0 0 -1.8898,-1.88976 M 781.26948,361.53778 H 448.67144 m -0.32506,204.09421 h 67.27549 m 0,0 V 550.5139 m -98.26797,-173.85812 4.7e-4,41.57481 m -15.11806,1.88976 v 71.81094 m 15.11806,-73.7007 h -13.22836 m 0,75.59045 h 13.22836 m 363.91511,-75.59045 v -56.69281 m 13.22828,56.69281 h -13.22828 m 15.11808,73.7007 v -71.81094 m -15.11808,73.70069 h 13.22828 m -377.14339,0 v 56.69277 H 402.2362 v 30.99248 M 781.26948,550.5139 V 493.82104 M 516.70285,550.5139 h 264.56663"
       inkscape:connector-curvature="0" />
  </g>
</svg>
