<?xml version="1.0" encoding="UTF-8" standalone="no"?>
<svg
   xmlns:dc="http://purl.org/dc/elements/1.1/"
   xmlns:cc="http://creativecommons.org/ns#"
   xmlns:rdf="http://www.w3.org/1999/02/22-rdf-syntax-ns#"
   xmlns:svg="http://www.w3.org/2000/svg"
   xmlns="http://www.w3.org/2000/svg"
   xmlns:sodipodi="http://sodipodi.sourceforge.net/DTD/sodipodi-0.dtd"
   xmlns:inkscape="http://www.inkscape.org/namespaces/inkscape"
   version="1.1"
   width="297mm"
   height="210mm"
   viewBox="0 0 1052.3631 744.09514"
   id="svg6348"
   inkscape:version="0.91 r13725"
   sodipodi:docname="Storage_Box_inside.svg">
  <metadata
     id="metadata6378">
    <rdf:RDF>
      <cc:Work
         rdf:about="">
        <dc:format>image/svg+xml</dc:format>
        <dc:type
           rdf:resource="http://purl.org/dc/dcmitype/StillImage" />
        <dc:title />
      </cc:Work>
    </rdf:RDF>
  </metadata>
  <defs
     id="defs6376" />
  <sodipodi:namedview
     pagecolor="#ffffff"
     bordercolor="#666666"
     borderopacity="1"
     objecttolerance="10"
     gridtolerance="10"
     guidetolerance="10"
     inkscape:pageopacity="0"
     inkscape:pageshadow="2"
     inkscape:window-width="1920"
     inkscape:window-height="974"
     id="namedview6374"
     showgrid="false"
     inkscape:snap-bbox="true"
     inkscape:bbox-paths="true"
     inkscape:bbox-nodes="true"
     inkscape:snap-bbox-edge-midpoints="true"
     inkscape:snap-bbox-midpoints="true"
     inkscape:object-paths="true"
     inkscape:snap-intersection-paths="true"
     inkscape:object-nodes="true"
     inkscape:snap-smooth-nodes="true"
     inkscape:snap-midpoints="true"
     inkscape:snap-object-midpoints="true"
     inkscape:snap-center="true"
     units="mm"
     inkscape:zoom="0.75583502"
     inkscape:cx="143.32782"
     inkscape:cy="368.72356"
     inkscape:window-x="0"
     inkscape:window-y="27"
     inkscape:window-maximized="1"
     inkscape:current-layer="svg6348" />
  <!-- Front-->
  <g
     transform="translate(0.45002038,658.60577)"
     id="g6350">
    <path
       style="fill:none;stroke:#000000;stroke-width:0.90000075"
       d="M 269.29156,35.4331 269.29156,17.71655 279.92149,17.71655 279.92149,0 256.00415,0 161.2206,-0.00118953 147.04737,-0.00118953 146.87021,-10.63112 133.0513,-10.63112 132.87412,-0.00118953 118.70089,-0.00118953 23.917342,-0.00118953 0,0 0,17.71655 10.62993,17.71655 10.62993,35.4331 10.62993,49.60634 10.62993,67.32289 0,67.32289 0,85.03944 23.917342,85.03944 23.917342,74.40951 47.834685,74.40951 90.354405,74.40951 104.52765,74.40951 104.52765,85.03944 118.70089,85.03944 132.87412,85.03944 132.87412,74.40951 147.04737,74.40951 147.04737,85.03944 161.2206,85.03944 175.39384,85.03944 175.39384,74.40951 189.56708,74.40951 232.0868,74.40951 256.00415,74.40951 256.00415,85.03944 279.92149,85.03944 279.92149,67.32289 269.29156,67.32289 269.29156,49.60634 Z"
       id="polygon6352"
       inkscape:connector-curvature="0"
       sodipodi:nodetypes="ccccccccccccccccccccccccccccccccccccccccccc" />
  </g>
  <!-- Back-->
  <!-- Left-->
  <!-- Right-->
  <!-- Top-->
  <g
     transform="matrix(0,1.0000001,-0.99999994,0,711.82539,100.48915)"
     id="g6366">
    <path
       style="fill:none;stroke:#000000;stroke-width:0.90000075"
       d="M 0,63.77958 0,49.60634 10.62993,49.60634 10.62993,35.4331 10.62993,17.71655 10.62993,10.62993 23.917342,10.62993 23.917342,0 47.834685,0 90.354405,0 104.52765,0 104.52765,10.62993 118.70089,10.62993 161.2206,10.62993 175.39384,10.62993 175.39384,0 189.56708,0 232.0868,0 256.00415,0 256.00415,10.62993 269.29156,10.62993 269.29156,17.71655 269.29156,35.4331 269.29156,49.60634 279.92149,49.60634 279.92149,63.77958 279.92149,77.95282 279.92149,92.12606 269.29156,92.12606 269.29156,106.2993 269.29156,124.01585 269.29156,131.10247 256.00415,131.10247 256.00415,141.7324 232.0868,141.7324 189.56708,141.7324 175.39384,141.7324 175.39384,131.10247 161.2206,131.10247 118.70089,131.10247 104.52765,131.10247 104.52765,141.7324 90.354405,141.7324 47.834685,141.7324 23.917342,141.7324 23.917342,131.10247 10.62993,131.10247 10.62993,124.01585 10.62993,106.2993 10.62993,92.12606 0,92.12606 0,77.95282 Z"
       id="polygon6368"
       inkscape:connector-curvature="0"
       sodipodi:nodetypes="ccccccccccccccccccccccccccccccccccccccccccccccccccccc" />
  </g>
  <!-- Bottom-->
  <g
     transform="matrix(-1,0,0,-1,280.37149,509.34106)"
     id="g6350-1">
    <path
       style="fill:none;stroke:#000000;stroke-width:0.90000075"
       d="M 269.29156,35.4331 269.29156,17.71655 279.92149,17.71655 279.92149,0 256.00415,0 161.2206,-0.00118953 147.04737,-0.00118953 146.87021,-10.63112 133.0513,-10.63112 132.87412,-0.00118953 118.70089,-0.00118953 23.917342,-0.00118953 0,0 0,17.71655 10.62993,17.71655 10.62993,35.4331 10.62993,49.60634 10.62993,67.32289 0,67.32289 0,85.03944 23.917342,85.03944 23.917342,74.40951 47.834685,74.40951 90.354405,74.40951 104.52765,74.40951 104.52765,85.03944 118.70089,85.03944 132.87412,85.03944 132.87412,74.40951 147.04737,74.40951 147.04737,85.03944 161.2206,85.03944 175.39384,85.03944 175.39384,74.40951 189.56708,74.40951 232.0868,74.40951 256.00415,74.40951 256.00415,85.03944 279.92149,85.03944 279.92149,67.32289 269.29156,67.32289 269.29156,49.60634 Z"
       id="polygon6352-2"
       inkscape:connector-curvature="0"
       sodipodi:nodetypes="ccccccccccccccccccccccccccccccccccccccccccc" />
  </g>
  <g
     transform="translate(0.45000038,335.26218)"
     id="g6350-2">
    <path
       style="fill:none;stroke:#000000;stroke-width:0.90000075"
       d="M 269.29156,35.4331 269.29156,17.71655 279.92149,17.71655 279.92149,0 256.00415,0 161.2206,-0.00118953 147.04737,-0.00118953 146.87021,-10.63112 133.0513,-10.63112 132.87412,-0.00118953 118.70089,-0.00118953 23.917342,-0.00118953 0,0 0,17.71655 10.62993,17.71655 10.62993,35.4331 10.62993,49.60634 10.62993,67.32289 0,67.32289 0,85.03944 23.917342,85.03944 23.917342,74.40951 47.834685,74.40951 90.354405,74.40951 104.52765,74.40951 104.52765,85.03944 118.70089,85.03944 132.87412,85.03944 132.87412,74.40951 147.04737,74.40951 147.04737,85.03944 161.2206,85.03944 175.39384,85.03944 175.39384,74.40951 189.56708,74.40951 232.0868,74.40951 256.00415,74.40951 256.00415,85.03944 279.92149,85.03944 279.92149,67.32289 269.29156,67.32289 269.29156,49.60634 Z"
       id="polygon6352-0"
       inkscape:connector-curvature="0"
       sodipodi:nodetypes="ccccccccccccccccccccccccccccccccccccccccccc" />
  </g>
  <g
     transform="translate(0.27286038,89.859221)"
     id="g6350-9-5">
    <path
       style="fill:none;stroke:#000000;stroke-width:0.90000075"
       d="M 10.80709,46.06303 10.80709,28.346481 0.17716,28.346481 0.17716,10.629931 24.094502,10.629931 24.094502,21.259861 48.011845,21.259861 90.531565,21.259861 104.70481,21.259861 104.70481,10.629931 118.87805,10.629931 161.39776,10.629931 175.571,10.629931 175.571,21.259861 189.74424,21.259861 232.26396,21.259861 256.18131,21.259861 256.18131,10.629931 280.09865,10.629931 280.09865,28.346481 269.46872,28.346481 269.46872,46.06303 269.46872,60.23627 269.46872,77.95282 280.09865,77.95282 280.09865,95.66937 256.18131,95.66937 256.18131,85.03944 232.26396,85.03944 189.74424,85.03944 175.571,85.03944 175.571,95.66937 161.39776,95.66937 147.22453,95.66937 147.22453,85.03944 133.05128,85.03944 133.05128,95.66937 118.87805,95.66937 104.70481,95.66937 104.70481,85.03944 90.531565,85.03944 48.011845,85.03944 24.094502,85.03944 24.094502,95.66937 0.17716,95.66937 0.17716,77.95282 10.80709,77.95282 10.80709,60.23627 Z"
       id="polygon6352-9-1"
       inkscape:connector-curvature="0"
       sodipodi:nodetypes="ccccccccccccccccccccccccccccccccccccccccccccccccc" />
  </g>
  <g
     transform="translate(285.27151,658.60577)"
     id="g6350-17">
    <path
       style="fill:none;stroke:#000000;stroke-width:0.90000075"
       d="M 269.29156,35.4331 269.29156,17.71655 279.92149,17.71655 279.92149,0 256.00415,0 161.2206,-0.00118953 147.04737,-0.00118953 146.87021,-10.63112 133.0513,-10.63112 132.87412,-0.00118953 118.70089,-0.00118953 23.917342,-0.00118953 0,0 0,17.71655 10.62993,17.71655 10.62993,35.4331 10.62993,49.60634 10.62993,67.32289 0,67.32289 0,85.03944 23.917342,85.03944 23.917342,74.40951 47.834685,74.40951 90.354405,74.40951 104.52765,74.40951 104.52765,85.03944 118.70089,85.03944 132.87412,85.03944 132.87412,74.40951 147.04737,74.40951 147.04737,85.03944 161.2206,85.03944 175.39384,85.03944 175.39384,74.40951 189.56708,74.40951 232.0868,74.40951 256.00415,74.40951 256.00415,85.03944 279.92149,85.03944 279.92149,67.32289 269.29156,67.32289 269.29156,49.60634 Z"
       id="polygon6352-1"
       inkscape:connector-curvature="0"
       sodipodi:nodetypes="ccccccccccccccccccccccccccccccccccccccccccc" />
  </g>
  <g
     transform="matrix(-1,0,0,-1,565.193,509.34106)"
     id="g6350-1-1">
    <path
       style="fill:none;stroke:#000000;stroke-width:0.90000075"
       d="M 269.29156,35.4331 269.29156,17.71655 279.92149,17.71655 279.92149,0 256.00415,0 161.2206,-0.00118953 147.04737,-0.00118953 146.87021,-10.63112 133.0513,-10.63112 132.87412,-0.00118953 118.70089,-0.00118953 23.917342,-0.00118953 0,0 0,17.71655 10.62993,17.71655 10.62993,35.4331 10.62993,49.60634 10.62993,67.32289 0,67.32289 0,85.03944 23.917342,85.03944 23.917342,74.40951 47.834685,74.40951 90.354405,74.40951 104.52765,74.40951 104.52765,85.03944 118.70089,85.03944 132.87412,85.03944 132.87412,74.40951 147.04737,74.40951 147.04737,85.03944 161.2206,85.03944 175.39384,85.03944 175.39384,74.40951 189.56708,74.40951 232.0868,74.40951 256.00415,74.40951 256.00415,85.03944 279.92149,85.03944 279.92149,67.32289 269.29156,67.32289 269.29156,49.60634 Z"
       id="polygon6352-2-1"
       inkscape:connector-curvature="0"
       sodipodi:nodetypes="ccccccccccccccccccccccccccccccccccccccccccc" />
  </g>
  <g
     transform="translate(285.27151,335.26218)"
     id="g6350-2-7">
    <path
       style="fill:none;stroke:#000000;stroke-width:0.90000075"
       d="M 269.29156,35.4331 269.29156,17.71655 279.92149,17.71655 279.92149,0 256.00415,0 161.2206,-0.00118953 147.04737,-0.00118953 146.87021,-10.63112 133.0513,-10.63112 132.87412,-0.00118953 118.70089,-0.00118953 23.917342,-0.00118953 0,0 0,17.71655 10.62993,17.71655 10.62993,35.4331 10.62993,49.60634 10.62993,67.32289 0,67.32289 0,85.03944 23.917342,85.03944 23.917342,74.40951 47.834685,74.40951 90.354405,74.40951 104.52765,74.40951 104.52765,85.03944 118.70089,85.03944 132.87412,85.03944 132.87412,74.40951 147.04737,74.40951 147.04737,85.03944 161.2206,85.03944 175.39384,85.03944 175.39384,74.40951 189.56708,74.40951 232.0868,74.40951 256.00415,74.40951 256.00415,85.03944 279.92149,85.03944 279.92149,67.32289 269.29156,67.32289 269.29156,49.60634 Z"
       id="polygon6352-0-0"
       inkscape:connector-curvature="0"
       sodipodi:nodetypes="ccccccccccccccccccccccccccccccccccccccccccc" />
  </g>
  <g
     transform="translate(285.09435,89.859221)"
     id="g6350-9-5-4">
    <path
       style="fill:none;stroke:#000000;stroke-width:0.90000075"
       d="M 10.80709,46.06303 10.80709,28.346481 0.17716,28.346481 0.17716,10.629931 24.094502,10.629931 24.094502,21.259861 48.011845,21.259861 90.531565,21.259861 104.70481,21.259861 104.70481,10.629931 118.87805,10.629931 161.39776,10.629931 175.571,10.629931 175.571,21.259861 189.74424,21.259861 232.26396,21.259861 256.18131,21.259861 256.18131,10.629931 280.09865,10.629931 280.09865,28.346481 269.46872,28.346481 269.46872,46.06303 269.46872,60.23627 269.46872,77.95282 280.09865,77.95282 280.09865,95.66937 256.18131,95.66937 256.18131,85.03944 232.26396,85.03944 189.74424,85.03944 175.571,85.03944 175.571,95.66937 161.39776,95.66937 147.22453,95.66937 147.22453,85.03944 133.05128,85.03944 133.05128,95.66937 118.87805,95.66937 104.70481,95.66937 104.70481,85.03944 90.531565,85.03944 48.011845,85.03944 24.094502,85.03944 24.094502,95.66937 0.17716,95.66937 0.17716,77.95282 10.80709,77.95282 10.80709,60.23627 Z"
       id="polygon6352-9-1-0"
       inkscape:connector-curvature="0"
       sodipodi:nodetypes="ccccccccccccccccccccccccccccccccccccccccccccccccc" />
  </g>
  <g
     transform="matrix(-1,0,0,-1,565.193,332.16099)"
     id="g6366-9">
    <path
       style="fill:none;stroke:#000000;stroke-width:0.90000075"
       d="M 10.629929,63.780874 5.5140083e-7,63.780874 5.5140083e-7,49.606342 10.629929,49.606342 10.629929,35.433101 10.629929,17.716549 10.629929,10.629929 23.917348,10.629929 23.917348,-6.1463267e-7 47.834686,-6.1463267e-7 90.354411,-6.1463267e-7 104.52765,-6.1463267e-7 104.52765,10.629929 118.70089,10.629929 161.2206,10.629929 175.39384,10.629929 175.39384,-6.1463267e-7 189.56708,-6.1463267e-7 232.0868,-6.1463267e-7 256.00415,-6.1463267e-7 256.00415,10.629929 269.29156,10.629929 269.29156,17.716549 269.29156,35.433101 269.29156,49.606342 279.92149,49.606342 279.92149,63.778294 269.29156,63.778294 269.29156,77.951535 279.92149,77.951535 279.92149,92.126057 269.29156,92.126057 269.29156,106.2993 269.29156,124.01585 269.29156,131.10247 256.00415,131.10247 256.00415,141.7324 232.0868,141.7324 189.56708,141.7324 175.39384,141.7324 175.39384,131.10247 161.2206,131.10247 118.70089,131.10247 104.52765,131.10247 104.52765,141.7324 90.354411,141.7324 47.834686,141.7324 23.917348,141.7324 23.917348,131.10247 10.629929,131.10247 10.629929,124.01585 10.629929,106.2993 10.629929,92.126057 5.5140083e-7,92.126057 5.5140083e-7,77.954115 10.629929,77.954115 Z"
       id="polygon6368-64"
       inkscape:connector-curvature="0"
       sodipodi:nodetypes="ccccccccccccccccccccccccccccccccccccccccccccccccccccccccc" />
  </g>
  <g
     transform="matrix(-1,0,0,-1,711.82475,557.85921)"
     id="g6362-81-4">
    <path
       style="fill:none;stroke:#000000;stroke-width:0.90000075"
       d="M 0,35.4331 0,17.71655 10.62993,17.71655 10.62993,0 17.71655,0 35.4331,0 49.60634,0 49.60634,10.62993 63.77958,10.62993 77.95282,10.62993 92.12606,10.62993 92.12606,0 106.2993,0 124.01585,0 131.10247,0 131.10247,17.71655 141.7324,17.71655 141.7324,35.4331 141.7324,49.60634 141.7324,67.32289 131.10247,67.32289 131.10247,85.03944 124.01585,85.03944 106.2993,85.03944 92.12606,85.03944 92.12606,74.40951 77.95282,74.40951 63.77958,74.40951 49.60634,74.40951 49.60634,85.03944 35.4331,85.03944 17.71655,85.03944 10.62993,85.03944 10.62993,67.32289 0,67.32289 0,49.60634 Z"
       id="polygon6364-02-9"
       inkscape:connector-curvature="0"
       sodipodi:nodetypes="ccccccccccccccccccccccccccccccccccccc" />
  </g>
  <g
     transform="translate(570.09299,383.78074)"
     id="g6362-8-2-1">
    <path
       style="fill:none;stroke:#000000;stroke-width:0.90000075"
       d="M 35.433103,85.039447 17.716558,85.039447 10.629938,85.039447 10.629938,67.322892 -1.2760409e-6,67.322892 -1.2760409e-6,49.606342 -1.2760409e-6,35.433101 -1.2760409e-6,17.716551 10.629938,17.716551 10.629938,1.6488013e-6 17.716558,1.6488013e-6 35.433103,1.6488013e-6 49.606345,1.6488013e-6 49.606345,10.62993 63.779584,10.62993 77.952822,10.62993 92.126062,10.62993 92.126062,1.6488013e-6 106.2993,1.6488013e-6 124.01585,1.6488013e-6 131.10247,1.6488013e-6 131.10247,17.716551 141.7324,17.716551 141.7324,35.433101 141.7324,49.606342 141.7324,67.322892 131.10247,67.322892 131.10247,85.039447 124.01585,85.039447 106.2993,85.039037 77.951536,85.039037 77.951536,95.670267 63.778296,95.670267 63.778296,85.039037 Z"
       id="polygon6364-0-9-7"
       inkscape:connector-curvature="0"
       sodipodi:nodetypes="ccccccccccccccccccccccccccccccccccc" />
  </g>
  <g
     transform="matrix(-1,0,0,-1,280.37149,331.26099)"
     id="g6366-9-4">
    <path
       style="fill:none;stroke:#000000;stroke-width:0.90000075"
       d="M 10.629929,63.780874 5.5140083e-7,63.780874 5.5140083e-7,49.606342 10.629929,49.606342 10.629929,35.433101 10.629929,17.716549 10.629929,10.629929 23.917348,10.629929 23.917348,-6.1463267e-7 47.834686,-6.1463267e-7 90.354411,-6.1463267e-7 104.52765,-6.1463267e-7 104.52765,10.629929 118.70089,10.629929 161.2206,10.629929 175.39384,10.629929 175.39384,-6.1463267e-7 189.56708,-6.1463267e-7 232.0868,-6.1463267e-7 256.00415,-6.1463267e-7 256.00415,10.629929 269.29156,10.629929 269.29156,17.716549 269.29156,35.433101 269.29156,49.606342 279.92149,49.606342 279.92149,63.778294 269.29156,63.778294 269.29156,77.951535 279.92149,77.951535 279.92149,92.126057 269.29156,92.126057 269.29156,106.2993 269.29156,124.01585 269.29156,131.10247 256.00415,131.10247 256.00415,141.7324 232.0868,141.7324 189.56708,141.7324 175.39384,141.7324 175.39384,131.10247 161.2206,131.10247 118.70089,131.10247 104.52765,131.10247 104.52765,141.7324 90.354411,141.7324 47.834686,141.7324 23.917348,141.7324 23.917348,131.10247 10.629929,131.10247 10.629929,124.01585 10.629929,106.2993 10.629929,92.126057 5.5140083e-7,92.126057 5.5140083e-7,77.954115 10.629929,77.954115 Z"
       id="polygon6368-64-6"
       inkscape:connector-curvature="0"
       sodipodi:nodetypes="ccccccccccccccccccccccccccccccccccccccccccccccccccccccccc" />
  </g>
  <g
     transform="matrix(-1,0,0,-1,280.37151,654.60577)"
     id="g6366-9-2">
    <path
       style="fill:none;stroke:#000000;stroke-width:0.90000075"
       d="M 10.629929,63.780874 5.5140083e-7,63.780874 5.5140083e-7,49.606342 10.629929,49.606342 10.629929,35.433101 10.629929,17.716549 10.629929,10.629929 23.917348,10.629929 23.917348,-6.1463267e-7 47.834686,-6.1463267e-7 90.354411,-6.1463267e-7 104.52765,-6.1463267e-7 104.52765,10.629929 118.70089,10.629929 161.2206,10.629929 175.39384,10.629929 175.39384,-6.1463267e-7 189.56708,-6.1463267e-7 232.0868,-6.1463267e-7 256.00415,-6.1463267e-7 256.00415,10.629929 269.29156,10.629929 269.29156,17.716549 269.29156,35.433101 269.29156,49.606342 279.92149,49.606342 279.92149,63.778294 269.29156,63.778294 269.29156,77.951535 279.92149,77.951535 279.92149,92.126057 269.29156,92.126057 269.29156,106.2993 269.29156,124.01585 269.29156,131.10247 256.00415,131.10247 256.00415,141.7324 232.0868,141.7324 189.56708,141.7324 175.39384,141.7324 175.39384,131.10247 161.2206,131.10247 118.70089,131.10247 104.52765,131.10247 104.52765,141.7324 90.354411,141.7324 47.834686,141.7324 23.917348,141.7324 23.917348,131.10247 10.629929,131.10247 10.629929,124.01585 10.629929,106.2993 10.629929,92.126057 5.5140083e-7,92.126057 5.5140083e-7,77.954115 10.629929,77.954115 Z"
       id="polygon6368-64-5"
       inkscape:connector-curvature="0"
       sodipodi:nodetypes="ccccccccccccccccccccccccccccccccccccccccccccccccccccccccc" />
  </g>
  <g
     transform="matrix(-1,0,0,-1,565.193,654.60458)"
     id="g6366-9-8">
    <path
       style="fill:none;stroke:#000000;stroke-width:0.90000075"
       d="M 10.629929,63.780874 5.5140083e-7,63.780874 5.5140083e-7,49.606342 10.629929,49.606342 10.629929,35.433101 10.629929,17.716549 10.629929,10.629929 23.917348,10.629929 23.917348,-6.1463267e-7 47.834686,-6.1463267e-7 90.354411,-6.1463267e-7 104.52765,-6.1463267e-7 104.52765,10.629929 118.70089,10.629929 161.2206,10.629929 175.39384,10.629929 175.39384,-6.1463267e-7 189.56708,-6.1463267e-7 232.0868,-6.1463267e-7 256.00415,-6.1463267e-7 256.00415,10.629929 269.29156,10.629929 269.29156,17.716549 269.29156,35.433101 269.29156,49.606342 279.92149,49.606342 279.92149,63.778294 269.29156,63.778294 269.29156,77.951535 279.92149,77.951535 279.92149,92.126057 269.29156,92.126057 269.29156,106.2993 269.29156,124.01585 269.29156,131.10247 256.00415,131.10247 256.00415,141.7324 232.0868,141.7324 189.56708,141.7324 175.39384,141.7324 175.39384,131.10247 161.2206,131.10247 118.70089,131.10247 104.52765,131.10247 104.52765,141.7324 90.354411,141.7324 47.834686,141.7324 23.917348,141.7324 23.917348,131.10247 10.629929,131.10247 10.629929,124.01585 10.629929,106.2993 10.629929,92.126057 5.5140083e-7,92.126057 5.5140083e-7,77.954115 10.629929,77.954115 Z"
       id="polygon6368-64-62"
       inkscape:connector-curvature="0"
       sodipodi:nodetypes="ccccccccccccccccccccccccccccccccccccccccccccccccccccccccc" />
  </g>
  <g
     transform="matrix(-1,0,0,-1,711.82476,646.89866)"
     id="g6362-8-2-1-8">
    <path
       style="fill:none;stroke:#000000;stroke-width:0.90000075"
       d="M 35.433103,85.039447 17.716558,85.039447 10.629938,85.039447 10.629938,67.322892 -1.2760409e-6,67.322892 -1.2760409e-6,49.606342 -1.2760409e-6,35.433101 -1.2760409e-6,17.716551 10.629938,17.716551 10.629938,1.6488013e-6 17.716558,1.6488013e-6 35.433103,1.6488013e-6 49.606345,1.6488013e-6 49.606345,10.62993 63.779584,10.62993 77.952822,10.62993 92.126062,10.62993 92.126062,1.6488013e-6 106.2993,1.6488013e-6 124.01585,1.6488013e-6 131.10247,1.6488013e-6 131.10247,17.716551 141.7324,17.716551 141.7324,35.433101 141.7324,49.606342 141.7324,67.322892 131.10247,67.322892 131.10247,85.039447 124.01585,85.039447 106.2993,85.039037 77.951536,85.039037 77.951536,95.670267 63.778296,95.670267 63.778296,85.039037 Z"
       id="polygon6364-0-9-7-4"
       inkscape:connector-curvature="0"
       sodipodi:nodetypes="ccccccccccccccccccccccccccccccccccc" />
  </g>
  <g
     transform="translate(716.72539,100.48915)"
     id="g6362-8-2-1-8-7">
    <path
       style="fill:none;stroke:#000000;stroke-width:0.90000075"
       d="M 35.433103,85.039447 17.716558,85.039447 10.629938,85.039447 10.629938,67.322892 -1.2760409e-6,67.322892 -1.2760409e-6,49.606342 -1.2760409e-6,35.433101 -1.2760409e-6,17.716551 10.629938,17.716551 10.629938,1.6488013e-6 17.716558,1.6488013e-6 35.433103,1.6488013e-6 49.606345,1.6488013e-6 49.606345,10.62993 63.779584,10.62993 77.952822,10.62993 92.126062,10.62993 92.126062,1.6488013e-6 106.2993,1.6488013e-6 124.01585,1.6488013e-6 131.10247,1.6488013e-6 131.10247,17.716551 141.7324,17.716551 141.7324,35.433101 141.7324,49.606342 141.7324,67.322892 131.10247,67.322892 131.10247,85.039447 124.01585,85.039447 106.2993,85.039037 77.951536,85.039037 77.951536,95.670267 63.778296,95.670267 63.778296,85.039037 Z"
       id="polygon6364-0-9-7-4-2"
       inkscape:connector-curvature="0"
       sodipodi:nodetypes="ccccccccccccccccccccccccccccccccccc" />
  </g>
  <g
     transform="matrix(-1,0,0,-1,858.45651,452.64632)"
     id="g6362-8-2-1-8-4">
    <path
       style="fill:none;stroke:#000000;stroke-width:0.90000075"
       d="M 35.433103,85.039447 17.716558,85.039447 10.629938,85.039447 10.629938,67.322892 -1.2760409e-6,67.322892 -1.2760409e-6,49.606342 -1.2760409e-6,35.433101 -1.2760409e-6,17.716551 10.629938,17.716551 10.629938,1.6488013e-6 17.716558,1.6488013e-6 35.433103,1.6488013e-6 49.606345,1.6488013e-6 49.606345,10.62993 63.779584,10.62993 77.952822,10.62993 92.126062,10.62993 92.126062,1.6488013e-6 106.2993,1.6488013e-6 124.01585,1.6488013e-6 131.10247,1.6488013e-6 131.10247,17.716551 141.7324,17.716551 141.7324,35.433101 141.7324,49.606342 141.7324,67.322892 131.10247,67.322892 131.10247,85.039447 124.01585,85.039447 106.2993,85.039037 77.951536,85.039037 77.951536,95.670267 63.778296,95.670267 63.778296,85.039037 Z"
       id="polygon6364-0-9-7-4-0"
       inkscape:connector-curvature="0"
       sodipodi:nodetypes="ccccccccccccccccccccccccccccccccccc" />
  </g>
  <g
     transform="matrix(-1,0,0,-1,858.45651,363.60687)"
     id="g6362-8-2-1-8-6">
    <path
       style="fill:none;stroke:#000000;stroke-width:0.90000075"
       d="M 35.433103,85.039447 17.716558,85.039447 10.629938,85.039447 10.629938,67.322892 -1.2760409e-6,67.322892 -1.2760409e-6,49.606342 -1.2760409e-6,35.433101 -1.2760409e-6,17.716551 10.629938,17.716551 10.629938,1.6488013e-6 17.716558,1.6488013e-6 35.433103,1.6488013e-6 49.606345,1.6488013e-6 49.606345,10.62993 63.779584,10.62993 77.952822,10.62993 92.126062,10.62993 92.126062,1.6488013e-6 106.2993,1.6488013e-6 124.01585,1.6488013e-6 131.10247,1.6488013e-6 131.10247,17.716551 141.7324,17.716551 141.7324,35.433101 141.7324,49.606342 141.7324,67.322892 131.10247,67.322892 131.10247,85.039447 124.01585,85.039447 106.2993,85.039037 77.951536,85.039037 77.951536,95.670267 63.778296,95.670267 63.778296,85.039037 Z"
       id="polygon6364-0-9-7-4-29"
       inkscape:connector-curvature="0"
       sodipodi:nodetypes="ccccccccccccccccccccccccccccccccccc" />
  </g>
  <g
     transform="matrix(-1,0,0,-1,711.82411,735.9379)"
     id="g6362-8-2-1-8-6-9">
    <path
       style="fill:none;stroke:#000000;stroke-width:0.90000075"
       d="M 35.433103,85.039447 17.716558,85.039447 10.629938,85.039447 10.629938,67.322892 -1.2760409e-6,67.322892 -1.2760409e-6,49.606342 -1.2760409e-6,35.433101 -1.2760409e-6,17.716551 10.629938,17.716551 10.629938,1.6488013e-6 17.716558,1.6488013e-6 35.433103,1.6488013e-6 49.606345,1.6488013e-6 49.606345,10.62993 63.779584,10.62993 77.952822,10.62993 92.126062,10.62993 92.126062,1.6488013e-6 106.2993,1.6488013e-6 124.01585,1.6488013e-6 131.10247,1.6488013e-6 131.10247,17.716551 141.7324,17.716551 141.7324,35.433101 141.7324,49.606342 141.7324,67.322892 131.10247,67.322892 131.10247,85.039447 124.01585,85.039447 106.2993,85.039037 77.951536,85.039037 77.951536,95.670267 63.778296,95.670267 63.778296,85.039037 Z"
       id="polygon6364-0-9-7-4-29-0"
       inkscape:connector-curvature="0"
       sodipodi:nodetypes="ccccccccccccccccccccccccccccccccccc" />
  </g>
  <g
     transform="matrix(-1,0,0,-1,858.45715,274.56763)"
     id="g6362-81-4-8">
    <path
       style="fill:none;stroke:#000000;stroke-width:0.90000075"
       d="M 0,35.4331 0,17.71655 10.62993,17.71655 10.62993,0 17.71655,0 35.4331,0 49.60634,0 49.60634,10.62993 63.77958,10.62993 77.95282,10.62993 92.12606,10.62993 92.12606,0 106.2993,0 124.01585,0 131.10247,0 131.10247,17.71655 141.7324,17.71655 141.7324,35.4331 141.7324,49.60634 141.7324,67.32289 131.10247,67.32289 131.10247,85.03944 124.01585,85.03944 106.2993,85.03944 92.12606,85.03944 92.12606,74.40951 77.95282,74.40951 63.77958,74.40951 49.60634,74.40951 49.60634,85.03944 35.4331,85.03944 17.71655,85.03944 10.62993,85.03944 10.62993,67.32289 0,67.32289 0,49.60634 Z"
       id="polygon6364-02-9-1"
       inkscape:connector-curvature="0"
       sodipodi:nodetypes="ccccccccccccccccccccccccccccccccccccc" />
  </g>
</svg>
