<?xml version="1.0" encoding="UTF-8" standalone="no"?>
<svg
   xmlns:dc="http://purl.org/dc/elements/1.1/"
   xmlns:cc="http://creativecommons.org/ns#"
   xmlns:rdf="http://www.w3.org/1999/02/22-rdf-syntax-ns#"
   xmlns:svg="http://www.w3.org/2000/svg"
   xmlns="http://www.w3.org/2000/svg"
   xmlns:sodipodi="http://sodipodi.sourceforge.net/DTD/sodipodi-0.dtd"
   xmlns:inkscape="http://www.inkscape.org/namespaces/inkscape"
   version="1.1"
   width="152.7mm"
   height="212.7mm"
   viewBox=" 0 0 541.0634369999999 753.6620369999999"
   id="svg4213"
   inkscape:version="0.91 r13725"
   sodipodi:docname="headset_holder.svg">
  <metadata
     id="metadata4243">
    <rdf:RDF>
      <cc:Work
         rdf:about="">
        <dc:format>image/svg+xml</dc:format>
        <dc:type
           rdf:resource="http://purl.org/dc/dcmitype/StillImage" />
        <dc:title />
      </cc:Work>
    </rdf:RDF>
  </metadata>
  <defs
     id="defs4241" />
  <sodipodi:namedview
     pagecolor="#ffffff"
     bordercolor="#666666"
     borderopacity="1"
     objecttolerance="10"
     gridtolerance="10"
     guidetolerance="10"
     inkscape:pageopacity="0"
     inkscape:pageshadow="2"
     inkscape:window-width="1920"
     inkscape:window-height="974"
     id="namedview4239"
     showgrid="false"
     inkscape:snap-bbox="true"
     inkscape:bbox-paths="true"
     inkscape:bbox-nodes="true"
     inkscape:snap-bbox-edge-midpoints="true"
     inkscape:snap-bbox-midpoints="true"
     inkscape:object-paths="true"
     inkscape:snap-intersection-paths="true"
     inkscape:object-nodes="true"
     inkscape:snap-midpoints="true"
     inkscape:snap-smooth-nodes="true"
     inkscape:snap-text-baseline="true"
     inkscape:snap-center="true"
     inkscape:snap-object-midpoints="true"
     inkscape:zoom="1.6371968"
     inkscape:cx="33.413201"
     inkscape:cy="319.70375"
     inkscape:window-x="0"
     inkscape:window-y="27"
     inkscape:window-maximized="1"
     inkscape:current-layer="svg4213"
     inkscape:measure-start="187.842,747.779"
     inkscape:measure-end="199.182,747.779" />
  <!-- Front-->
  <g
     transform="translate(6.0750045,317.73391)"
     id="g4215">
    <path
       style="fill:none;stroke:#000000;stroke-width:0.96000004"
       d="M 163.8418,133.60547 V 110.92969 H 175.18164 V 88.251953 H 163.8418 V 56.126953 H 175.18164 V 24 H 143.05469 V 35.337891 H 110.92969 V 24 H 88.251953 V 35.337891 H 56.126953 V 24 H 24 V 56.126953 H 35.337891 V 88.251953 H 24 V 110.92969 H 35.337891 V 133.60547 C 86.294901,120.51942 127.50593,123.13524 163.8418,133.60547 Z M 64.630859,88.785156 C 66.423604,88.785212 67.876897,90.238505 67.876953,92.03125 67.876897,93.823995 66.423604,95.277288 64.630859,95.277344 62.837351,95.278367 61.382868,93.824758 61.382812,92.03125 61.382868,90.237742 62.837351,88.784133 64.630859,88.785156 Z M 134.55078,88.785156 C 136.34353,88.78521 137.79682,90.238503 137.79688,92.03125 137.79682,93.823997 136.34353,95.27729 134.55078,95.277344 132.75804,95.277285 131.30475,93.823993 131.30469,92.03125 131.30475,90.238507 132.75804,88.785215 134.55078,88.785156 Z"
       transform="matrix(0.93750077,0,0,0.93750077,-22.500018,-22.500018)"
       id="polygon4217"
       inkscape:connector-curvature="0"
       sodipodi:nodetypes="ccccccccccccccccccccccccccccccccccc" />
  </g>
  <!-- Back-->
  <!-- Left-->
  <!-- Right-->
  <!-- Top-->
  <!-- Bottom-->
  <g
     transform="translate(-128.03217,1037.731)"
     id="g4235">
    <path
       style="fill:none;stroke:#000000;stroke-width:0.90000075"
       d="M 177.88934,-527.50265 V -538.13258 H 204.46417 V -527.50265 H 225.72403 V -538.13258 H 246.98389 V -527.50265 H 268.24375 V -538.13258 H 289.50361 V -527.50265 H 310.76347 V -538.13258 H 337.3383 V -527.50265 H 353.28319 V -508.01445 H 363.91312 V -477.89631 H 353.28319 V -456.63645 H 363.91312 V -426.51831 H 353.28319 V -407.03011 H 337.3383 V -396.40018 H 310.76347 V -407.03011 H 289.50361 V -396.40018 H 268.24375 V -407.03011 H 246.98389 V -396.40018 H 225.72403 V -407.03011 H 204.46417 V -396.40018 H 177.88934 V -407.03011 C 143.16846,-411.83275 143.16846,-527.50265 177.88934,-527.50265 Z"
       id="polygon4237"
       inkscape:connector-curvature="0"
       sodipodi:nodetypes="ccccccccccccccccccccccccccccccccccccccccccc" />
  </g>
  <g
     transform="matrix(-1,0,0,1,213.04928,427.18224)"
     id="g4223">
    <path
       style="fill:none;stroke:#000000;stroke-width:0.96000004"
       d="M 175.18202,133.6055 C 260.44446,23.33323 349.96198,125.87865 390.61328,56.126953 L 390.61328,24 C 390.61328,15.58478 368.1294,-15.315081 363.21094,-15.298828 362.60692,-15.296832 362.26758,-14.82837 362.26758,-13.794922 L 362.26758,35.337891 333.92188,35.337891 333.92188,24 311.24414,24 311.24414,35.337891 288.56641,35.337891 288.56641,24 265.89062,24 265.89062,35.337891 243.21289,35.337891 243.21289,24 220.53516,24 220.53516,35.337891 192.18945,35.337891 192.18945,24 175.18164,24 175.18164,56.126953 163.8418,56.126953 163.8418,88.251953 175.18164,88.251953 175.18164,110.92969 163.8418,110.92969 163.8418,133.60549 C 163.8418,149.69474 175.18202,133.6055 175.18202,133.6055"
       transform="matrix(-0.93750077,0,0,0.93750077,366.20109,-22.500019)"
       id="polygon4225"
       inkscape:connector-curvature="0"
       sodipodi:nodetypes="ccsssccccccccccccccccccccccsc" />
  </g>
  <g
     style="font-style:normal;font-variant:normal;font-weight:300;font-stretch:normal;font-size:15.0000124px;line-height:1.25;font-family:Comfortaa;-inkscape-font-specification:'Comfortaa, Light';text-align:start;letter-spacing:0px;word-spacing:0px;writing-mode:lr-tb;text-anchor:start;fill:#000000;fill-opacity:1;stroke:none;stroke-width:0.93750077"
     id="text894">
    <path
       d="M 70.327469,458.29581 Q 70.517899,458.29581 70.649735,458.42764 70.781571,458.55948 70.781571,458.74991 70.781571,458.93301 70.671708,459.0502 69.851395,459.68741 68.928542,460.02432 68.00569,460.35391 66.980299,460.35391 65.78645,460.35391 64.739086,459.90713 63.691722,459.46036 62.834787,458.64004 62.014474,457.78311 61.567696,456.73575 61.120919,455.68838 61.120919,454.49453 61.120919,452.07021 62.834787,450.35635 64.55598,448.63515 66.980299,448.63515 69.067703,448.63515 70.693681,449.96816 70.825517,450.1 70.825517,450.29043 70.825517,450.47353 70.693681,450.60537 70.561845,450.73721 70.378739,450.73721 70.188309,450.73721 70.005203,450.56142 68.738113,449.53603 66.980299,449.53603 64.929516,449.53603 63.471995,450.99355 62.021798,452.44375 62.021798,454.49453 62.021798,456.55264 63.471995,458.00284 64.922191,459.45303 66.980299,459.45303 68.752761,459.45303 70.08577,458.36172 70.180985,458.29581 70.327469,458.29581 Z"
       style="font-style:normal;font-variant:normal;font-weight:300;font-stretch:normal;font-size:15.0000124px;font-family:Comfortaa;-inkscape-font-specification:'Comfortaa, Light';text-align:start;writing-mode:lr-tb;text-anchor:start;stroke-width:0.93750077"
       id="path4177" />
    <path
       d="M 71.982744,452.60488 Q 71.982744,452.41445 72.11458,452.28262 72.246416,452.15078 72.436846,452.15078 72.627276,452.15078 72.759112,452.28262 72.890948,452.41445 72.890948,452.60488 L 72.890948,453.6376 Q 74.377765,452.15078 76.08431,452.15078 76.999838,452.15078 77.651694,452.43643 77.768881,452.48037 77.864096,452.57559 77.988608,452.7001 77.988608,452.89785 77.988608,453.08828 77.856772,453.22012 77.724936,453.35195 77.534506,453.35195 77.417319,453.35195 77.329428,453.30801 76.816732,453.05898 76.08431,453.05898 74.765949,453.05898 73.828448,453.99649 72.890948,454.92666 72.890948,456.25235 L 72.890948,459.89981 Q 72.890948,460.09024 72.759112,460.22208 72.627276,460.35391 72.436846,460.35391 72.246416,460.35391 72.11458,460.22208 71.982744,460.09024 71.982744,459.89981 L 71.982744,452.60488 Z"
       style="font-style:normal;font-variant:normal;font-weight:300;font-stretch:normal;font-size:15.0000124px;font-family:Comfortaa;-inkscape-font-specification:'Comfortaa, Light';text-align:start;writing-mode:lr-tb;text-anchor:start;stroke-width:0.93750077"
       id="path4179" />
    <path
       d="M 83.093594,453.05898 Q 81.775233,453.05898 80.837732,453.99649 79.900232,454.93399 79.900232,456.25235 79.900232,457.57071 80.837732,458.50821 81.775233,459.44571 83.093594,459.44571 84.411954,459.44571 85.349455,458.50821 86.279631,457.57803 86.279631,456.25235 86.279631,454.92666 85.349455,453.99649 84.411954,453.05898 83.093594,453.05898 Z M 86.279631,458.86709 Q 84.800138,460.35391 83.093594,460.35391 81.394374,460.35391 80.193201,459.15274 78.992028,457.95157 78.992028,456.25235 78.992028,454.55313 80.193201,453.35195 81.394374,452.15078 83.093594,452.15078 84.792814,452.15078 85.993987,453.35195 87.19516,454.55313 87.19516,456.25235 L 87.19516,459.89981 Q 87.19516,460.09024 87.063324,460.22208 86.931487,460.35391 86.741058,460.35391 86.550628,460.35391 86.411467,460.22208 86.279631,460.09024 86.279631,459.89981 L 86.279631,458.86709 Z"
       style="font-style:normal;font-variant:normal;font-weight:300;font-stretch:normal;font-size:15.0000124px;font-family:Comfortaa;-inkscape-font-specification:'Comfortaa, Light';text-align:start;writing-mode:lr-tb;text-anchor:start;stroke-width:0.93750077"
       id="path4181" />
    <path
       d="M 92.695653,448.63515 Q 92.886082,448.63515 93.017918,448.76699 93.149755,448.89882 93.149755,449.08925 93.149755,449.27968 93.017918,449.41884 92.886082,449.55068 92.695653,449.55068 90.110201,449.55068 90.110201,452.12881 L 90.110201,452.60488 92.095066,452.60488 Q 92.285496,452.60488 92.417332,452.73672 92.549168,452.86855 92.549168,453.05898 92.549168,453.24941 92.417332,453.38857 92.285496,453.52041 92.095066,453.52041 L 90.110201,453.52041 90.110201,459.89981 Q 90.110201,460.09024 89.978365,460.22208 89.846529,460.35391 89.656099,460.35391 89.465669,460.35391 89.326509,460.22208 89.194673,460.09024 89.194673,459.89981 L 89.194673,453.52041 88.440278,453.52041 Q 88.249848,453.52041 88.118012,453.38857 87.986176,453.24941 87.986176,453.05898 87.986176,452.86855 88.118012,452.73672 88.249848,452.60488 88.440278,452.60488 L 89.194673,452.60488 89.194673,452.12881 Q 89.194673,448.63515 92.695653,448.63515 Z"
       style="font-style:normal;font-variant:normal;font-weight:300;font-stretch:normal;font-size:15.0000124px;font-family:Comfortaa;-inkscape-font-specification:'Comfortaa, Light';text-align:start;writing-mode:lr-tb;text-anchor:start;stroke-width:0.93750077"
       id="path4183" />
    <path
       d="M 97.947121,459.44571 Q 98.137551,459.44571 98.269387,459.57754 98.408547,459.70938 98.408547,459.89981 98.408547,460.09024 98.269387,460.22208 98.137551,460.35391 97.947121,460.35391 95.061376,460.35391 95.061376,457.46817 L 95.061376,453.05898 94.306981,453.05898 Q 94.116551,453.05898 93.977391,452.92715 93.845555,452.79531 93.845555,452.60488 93.845555,452.41445 93.977391,452.28262 94.116551,452.15078 94.306981,452.15078 L 95.061376,452.15078 95.061376,449.08193 Q 95.061376,448.8915 95.193212,448.75966 95.325048,448.62783 95.515478,448.62783 95.705908,448.62783 95.837744,448.75966 95.976904,448.8915 95.976904,449.08193 L 95.976904,452.15078 97.346534,452.15078 Q 97.536964,452.15078 97.6688,452.28262 97.80796,452.41445 97.80796,452.60488 97.80796,452.79531 97.6688,452.92715 97.536964,453.05898 97.346534,453.05898 L 95.976904,453.05898 95.976904,457.46817 Q 95.976904,459.44571 97.947121,459.44571 Z"
       style="font-style:normal;font-variant:normal;font-weight:300;font-stretch:normal;font-size:15.0000124px;font-family:Comfortaa;-inkscape-font-specification:'Comfortaa, Light';text-align:start;writing-mode:lr-tb;text-anchor:start;stroke-width:0.93750077"
       id="path4185" />
    <path
       d="M 101.39683,450.17324 Q 101.39683,450.42959 101.22105,450.60537 101.04527,450.78115 100.78892,450.78115 100.5399,450.78115 100.35679,450.60537 100.18101,450.42959 100.18101,450.17324 100.18101,449.92422 100.35679,449.74843 100.5399,449.56533 100.78892,449.56533 101.04527,449.56533 101.22105,449.74843 101.39683,449.92422 101.39683,450.17324 Z M 100.33482,452.60488 Q 100.33482,452.41445 100.46665,452.28262 100.59849,452.15078 100.78892,452.15078 100.97935,452.15078 101.11118,452.28262 101.25035,452.41445 101.25035,452.60488 L 101.25035,459.89981 Q 101.25035,460.09024 101.11118,460.22208 100.97935,460.35391 100.78892,460.35391 100.59849,460.35391 100.46665,460.22208 100.33482,460.09024 100.33482,459.89981 L 100.33482,452.60488 Z"
       style="font-style:normal;font-variant:normal;font-weight:300;font-stretch:normal;font-size:15.0000124px;font-family:Comfortaa;-inkscape-font-specification:'Comfortaa, Light';text-align:start;writing-mode:lr-tb;text-anchor:start;stroke-width:0.93750077"
       id="path4187" />
    <path
       d="M 103.19859,452.60488 Q 103.19859,452.41445 103.33043,452.28262 103.46226,452.15078 103.65269,452.15078 103.84312,452.15078 103.97496,452.28262 104.10679,452.41445 104.10679,452.60488 L 104.10679,453.45449 Q 105.45445,452.15078 106.99254,452.15078 108.57457,452.15078 109.6732,453.26406 110.79381,454.37734 110.79381,455.95205 L 110.79381,459.89981 Q 110.79381,460.09024 110.65465,460.22208 110.52281,460.35391 110.33238,460.35391 110.14195,460.35391 110.01012,460.22208 109.87828,460.09024 109.87828,459.89981 L 109.87828,455.95205 Q 109.87828,454.74356 109.02867,453.91592 108.17906,453.05898 106.99254,453.05898 105.80601,453.05898 104.94908,453.91592 104.10679,454.75088 104.10679,455.95205 L 104.10679,459.89981 Q 104.10679,460.09024 103.97496,460.22208 103.84312,460.35391 103.65269,460.35391 103.46226,460.35391 103.33043,460.22208 103.19859,460.09024 103.19859,459.89981 L 103.19859,452.60488 Z"
       style="font-style:normal;font-variant:normal;font-weight:300;font-stretch:normal;font-size:15.0000124px;font-family:Comfortaa;-inkscape-font-specification:'Comfortaa, Light';text-align:start;writing-mode:lr-tb;text-anchor:start;stroke-width:0.93750077"
       id="path4189" />
    <path
       d="M 116.0819,453.05898 Q 114.76354,453.05898 113.82604,453.98916 112.88854,454.92666 112.88854,456.24502 112.88854,457.55606 113.82604,458.49356 114.76354,459.43106 116.0819,459.43106 117.40026,459.43106 118.33776,458.49356 119.26794,457.56338 119.26794,456.24502 119.26794,454.91934 118.33776,453.98916 117.40026,453.05898 116.0819,453.05898 Z M 119.26794,458.85245 Q 117.92761,460.33194 116.0819,460.33194 114.38268,460.33194 113.18151,459.13809 111.98034,457.93692 111.98034,456.24502 111.98034,454.5458 113.18151,453.35195 114.38268,452.15078 116.0819,452.15078 117.78112,452.15078 118.98229,453.35195 120.18347,454.5458 120.18347,456.24502 L 120.18347,460.39053 Q 120.18347,461.6503 119.26794,462.58048 117.97888,463.86954 116.14782,463.86954 114.31676,463.86954 113.03502,462.58048 112.55895,462.12637 112.26598,461.59171 112.18541,461.45255 112.18541,461.32071 112.18541,461.13028 112.31725,460.99844 112.44909,460.86661 112.63952,460.86661 112.82995,460.86661 112.96911,461.00577 113.0277,461.05704 113.07165,461.14493 113.32067,461.58438 113.67956,461.94327 114.19225,462.45596 114.80749,462.70499 115.43005,462.96134 116.14782,462.96134 117.59802,462.96134 118.62341,461.93594 119.26794,461.15958 119.26794,460.39053 L 119.26794,458.85245 Z"
       style="font-style:normal;font-variant:normal;font-weight:300;font-stretch:normal;font-size:15.0000124px;font-family:Comfortaa;-inkscape-font-specification:'Comfortaa, Light';text-align:start;writing-mode:lr-tb;text-anchor:start;stroke-width:0.93750077"
       id="path4191" />
    <path
       d="M 125.74988,449.08925 Q 125.74988,448.89882 125.88171,448.76699 126.01355,448.63515 126.19666,448.63515 126.38709,448.63515 126.51892,448.76699 126.65076,448.89882 126.65076,449.08925 L 126.65076,459.45303 132.81043,459.45303 Q 133.00086,459.45303 133.1327,459.58487 133.26453,459.7167 133.26453,459.89981 133.26453,460.09024 133.1327,460.22208 133.00086,460.35391 132.81043,460.35391 L 126.19666,460.35391 Q 126.01355,460.35391 125.88171,460.22208 125.74988,460.09024 125.74988,459.89981 L 125.74988,449.08925 Z"
       style="font-style:normal;font-variant:normal;font-weight:300;font-stretch:normal;font-size:15.0000124px;font-family:Comfortaa;-inkscape-font-specification:'Comfortaa, Light';text-align:start;writing-mode:lr-tb;text-anchor:start;stroke-width:0.93750077"
       id="path4193" />
    <path
       d="M 138.25966,453.05898 Q 136.94129,453.05898 136.00379,453.99649 135.06629,454.93399 135.06629,456.25235 135.06629,457.57071 136.00379,458.50821 136.94129,459.44571 138.25966,459.44571 139.57802,459.44571 140.51552,458.50821 141.44569,457.57803 141.44569,456.25235 141.44569,454.92666 140.51552,453.99649 139.57802,453.05898 138.25966,453.05898 Z M 141.44569,458.86709 Q 139.9662,460.35391 138.25966,460.35391 136.56043,460.35391 135.35926,459.15274 134.15809,457.95157 134.15809,456.25235 134.15809,454.55313 135.35926,453.35195 136.56043,452.15078 138.25966,452.15078 139.95888,452.15078 141.16005,453.35195 142.36122,454.55313 142.36122,456.25235 L 142.36122,459.89981 Q 142.36122,460.09024 142.22938,460.22208 142.09755,460.35391 141.90712,460.35391 141.71669,460.35391 141.57753,460.22208 141.44569,460.09024 141.44569,459.89981 L 141.44569,458.86709 Z"
       style="font-style:normal;font-variant:normal;font-weight:300;font-stretch:normal;font-size:15.0000124px;font-family:Comfortaa;-inkscape-font-specification:'Comfortaa, Light';text-align:start;writing-mode:lr-tb;text-anchor:start;stroke-width:0.93750077"
       id="path4195" />
    <path
       d="M 147.63466,459.44571 Q 148.95302,459.44571 149.89052,458.50821 150.8207,457.57803 150.8207,456.25235 150.8207,454.92666 149.89052,453.99649 148.95302,453.05898 147.63466,453.05898 146.3163,453.05898 145.3788,453.99649 144.4413,454.93399 144.4413,456.25235 144.4413,457.57071 145.3788,458.50821 146.3163,459.44571 147.63466,459.44571 Z M 144.4413,453.6376 144.73427,453.35195 Q 145.93544,452.15078 147.63466,452.15078 149.33388,452.15078 150.53506,453.35195 151.73623,454.55313 151.73623,456.25235 151.73623,457.95157 150.53506,459.15274 149.33388,460.35391 147.63466,460.35391 145.93544,460.35391 144.73427,459.15274 143.5331,457.95157 143.5331,456.25235 L 143.5331,449.08925 Q 143.5331,448.89882 143.66493,448.76699 143.79677,448.63515 143.9872,448.63515 144.17763,448.63515 144.30946,448.76699 144.4413,448.89882 144.4413,449.08925 L 144.4413,453.6376 Z"
       style="font-style:normal;font-variant:normal;font-weight:300;font-stretch:normal;font-size:15.0000124px;font-family:Comfortaa;-inkscape-font-specification:'Comfortaa, Light';text-align:start;writing-mode:lr-tb;text-anchor:start;stroke-width:0.93750077"
       id="path4197" />
    <path
       d="M 154.32168,456.10586 154.329,456.10586 Q 153.99209,455.98135 153.76504,455.86416 153.53799,455.73965 153.41348,455.60781 152.92275,455.10244 152.92275,454.42861 152.92275,453.74746 153.43545,453.22012 154.49014,452.15078 156.18936,452.15078 157.09756,452.15078 157.8959,452.53896 158.69424,452.91982 159.33877,453.62295 159.41934,453.72549 159.41934,453.8793 159.41934,454.06973 159.28018,454.20889 159.14834,454.34072 158.95791,454.34072 158.77481,454.34072 158.67227,454.22354 L 158.44522,453.99649 Q 157.50772,453.05898 156.18936,453.05898 154.86367,453.05898 154.05801,453.90859 153.83828,454.16494 153.83828,454.53848 153.85293,454.7582 153.97012,454.91934 154.0873,455.08047 154.31436,455.16104 L 158.05703,456.39883 158.04971,456.39883 Q 158.38662,456.52334 158.61368,456.64785 158.84073,456.76504 158.95791,456.89688 159.45596,457.39493 159.45596,458.07608 159.45596,458.76456 158.93594,459.28458 157.88858,460.35391 156.18936,460.35391 154.35098,460.35391 153.03994,458.88907 152.95937,458.7792 152.95937,458.6254 152.95937,458.43497 153.09121,458.30313 153.22305,458.16397 153.41348,458.16397 153.58926,458.16397 153.70644,458.28116 L 153.9335,458.50821 Q 154.871,459.44571 156.18936,459.44571 157.50772,459.44571 158.30606,458.60342 158.53311,458.34707 158.53311,457.97354 158.49649,457.50479 158.05703,457.34366 L 154.32168,456.10586 Z"
       style="font-style:normal;font-variant:normal;font-weight:300;font-stretch:normal;font-size:15.0000124px;font-family:Comfortaa;-inkscape-font-specification:'Comfortaa, Light';text-align:start;writing-mode:lr-tb;text-anchor:start;stroke-width:0.93750077"
       id="path4199" />
  </g>
  <g
     transform="translate(0.44916,251.99112)"
     id="g4223-04">
    <path
       style="fill:none;stroke:#000000;stroke-width:0.96000004"
       d="M 175.18202,133.6055 C 260.44446,23.33323 349.96198,125.87865 390.61328,56.126953 L 390.61328,24 C 390.61328,15.58478 368.1294,-15.315081 363.21094,-15.298828 362.60692,-15.296832 362.26758,-14.82837 362.26758,-13.794922 L 362.26758,35.337891 333.92188,35.337891 333.92188,24 311.24414,24 311.24414,35.337891 288.56641,35.337891 288.56641,24 265.89062,24 265.89062,35.337891 243.21289,35.337891 243.21289,24 220.53516,24 220.53516,35.337891 192.18945,35.337891 192.18945,24 175.18164,24 175.18164,56.126953 163.8418,56.126953 163.8418,88.251953 175.18164,88.251953 175.18164,110.92969 163.8418,110.92969 163.8418,133.60549 C 163.8418,149.69474 175.18202,133.6055 175.18202,133.6055"
       transform="matrix(-0.93750077,0,0,0.93750077,366.20109,-22.500019)"
       id="polygon4225-8"
       inkscape:connector-curvature="0"
       sodipodi:nodetypes="ccsssccccccccccccccccccccccsc" />
  </g>
  <g
     style="font-style:normal;font-variant:normal;font-weight:300;font-stretch:normal;font-size:15.0000124px;line-height:1.25;font-family:Comfortaa;-inkscape-font-specification:'Comfortaa, Light';text-align:start;letter-spacing:0px;word-spacing:0px;writing-mode:lr-tb;text-anchor:start;fill:#000000;fill-opacity:1;stroke:none;stroke-width:0.93750077"
     id="text894-0">
    <path
       d="M 63.249032,283.10467 Q 63.439461,283.10467 63.571297,283.23651 63.703133,283.36835 63.703133,283.55878 63.703133,283.74188 63.59327,283.85907 62.772957,284.49628 61.850105,284.83319 60.927252,285.16278 59.901861,285.16278 58.708012,285.16278 57.660648,284.716 56.613284,284.26923 55.75635,283.44891 54.936036,282.59198 54.489259,281.54461 54.042481,280.49725 54.042481,279.3034 54.042481,276.87908 55.75635,275.16521 57.477542,273.44402 59.901861,273.44402 61.989265,273.44402 63.615243,274.77703 63.747079,274.90887 63.747079,275.0993 63.747079,275.2824 63.615243,275.41424 63.483407,275.54607 63.300301,275.54607 63.109871,275.54607 62.926766,275.37029 61.659675,274.3449 59.901861,274.3449 57.851078,274.3449 56.393557,275.80242 54.943361,277.25262 54.943361,279.3034 54.943361,281.36151 56.393557,282.8117 57.843754,284.2619 59.901861,284.2619 61.674323,284.2619 63.007332,283.17059 63.102547,283.10467 63.249032,283.10467 Z"
       style="font-style:normal;font-variant:normal;font-weight:300;font-stretch:normal;font-size:15.0000124px;font-family:Comfortaa;-inkscape-font-specification:'Comfortaa, Light';text-align:start;writing-mode:lr-tb;text-anchor:start;stroke-width:0.93750077"
       id="path4206" />
    <path
       d="M 64.904306,277.41375 Q 64.904306,277.22332 65.036142,277.09149 65.167978,276.95965 65.358408,276.95965 65.548838,276.95965 65.680674,277.09149 65.81251,277.22332 65.81251,277.41375 L 65.81251,278.44647 Q 67.299327,276.95965 69.005872,276.95965 69.9214,276.95965 70.573256,277.24529 70.690444,277.28924 70.785658,277.38445 70.91017,277.50897 70.91017,277.70672 70.91017,277.89715 70.778334,278.02899 70.646498,278.16082 70.456068,278.16082 70.338881,278.16082 70.25099,278.11688 69.738294,277.86785 69.005872,277.86785 67.687511,277.86785 66.750011,278.80535 65.81251,279.73553 65.81251,281.06121 L 65.81251,284.70868 Q 65.81251,284.89911 65.680674,285.03094 65.548838,285.16278 65.358408,285.16278 65.167978,285.16278 65.036142,285.03094 64.904306,284.89911 64.904306,284.70868 L 64.904306,277.41375 Z"
       style="font-style:normal;font-variant:normal;font-weight:300;font-stretch:normal;font-size:15.0000124px;font-family:Comfortaa;-inkscape-font-specification:'Comfortaa, Light';text-align:start;writing-mode:lr-tb;text-anchor:start;stroke-width:0.93750077"
       id="path4208" />
    <path
       d="M 76.015156,277.86785 Q 74.696795,277.86785 73.759295,278.80535 72.821794,279.74285 72.821794,281.06121 72.821794,282.37958 73.759295,283.31708 74.696795,284.25458 76.015156,284.25458 77.333516,284.25458 78.271017,283.31708 79.201194,282.3869 79.201194,281.06121 79.201194,279.73553 78.271017,278.80535 77.333516,277.86785 76.015156,277.86785 Z M 79.201194,283.67596 Q 77.7217,285.16278 76.015156,285.16278 74.315936,285.16278 73.114763,283.96161 71.91359,282.76044 71.91359,281.06121 71.91359,279.36199 73.114763,278.16082 74.315936,276.95965 76.015156,276.95965 77.714376,276.95965 78.915549,278.16082 80.116722,279.36199 80.116722,281.06121 L 80.116722,284.70868 Q 80.116722,284.89911 79.984886,285.03094 79.85305,285.16278 79.66262,285.16278 79.47219,285.16278 79.33303,285.03094 79.201194,284.89911 79.201194,284.70868 L 79.201194,283.67596 Z"
       style="font-style:normal;font-variant:normal;font-weight:300;font-stretch:normal;font-size:15.0000124px;font-family:Comfortaa;-inkscape-font-specification:'Comfortaa, Light';text-align:start;writing-mode:lr-tb;text-anchor:start;stroke-width:0.93750077"
       id="path4210" />
    <path
       d="M 85.617215,273.44402 Q 85.807645,273.44402 85.939481,273.57586 86.071317,273.70769 86.071317,273.89812 86.071317,274.08855 85.939481,274.22771 85.807645,274.35955 85.617215,274.35955 83.031763,274.35955 83.031763,276.93768 L 83.031763,277.41375 85.016628,277.41375 Q 85.207058,277.41375 85.338894,277.54559 85.47073,277.67742 85.47073,277.86785 85.47073,278.05828 85.338894,278.19744 85.207058,278.32928 85.016628,278.32928 L 83.031763,278.32928 83.031763,284.70868 Q 83.031763,284.89911 82.899927,285.03094 82.768091,285.16278 82.577661,285.16278 82.387232,285.16278 82.248071,285.03094 82.116235,284.89911 82.116235,284.70868 L 82.116235,278.32928 81.36184,278.32928 Q 81.17141,278.32928 81.039574,278.19744 80.907738,278.05828 80.907738,277.86785 80.907738,277.67742 81.039574,277.54559 81.17141,277.41375 81.36184,277.41375 L 82.116235,277.41375 82.116235,276.93768 Q 82.116235,273.44402 85.617215,273.44402 Z"
       style="font-style:normal;font-variant:normal;font-weight:300;font-stretch:normal;font-size:15.0000124px;font-family:Comfortaa;-inkscape-font-specification:'Comfortaa, Light';text-align:start;writing-mode:lr-tb;text-anchor:start;stroke-width:0.93750077"
       id="path4212" />
    <path
       d="M 90.868683,284.25458 Q 91.059113,284.25458 91.190949,284.38641 91.330109,284.51825 91.330109,284.70868 91.330109,284.89911 91.190949,285.03094 91.059113,285.16278 90.868683,285.16278 87.982938,285.16278 87.982938,282.27704 L 87.982938,277.86785 87.228543,277.86785 Q 87.038113,277.86785 86.898953,277.73602 86.767117,277.60418 86.767117,277.41375 86.767117,277.22332 86.898953,277.09149 87.038113,276.95965 87.228543,276.95965 L 87.982938,276.95965 87.982938,273.8908 Q 87.982938,273.70037 88.114774,273.56853 88.24661,273.4367 88.43704,273.4367 88.62747,273.4367 88.759306,273.56853 88.898466,273.70037 88.898466,273.8908 L 88.898466,276.95965 90.268097,276.95965 Q 90.458526,276.95965 90.590362,277.09149 90.729523,277.22332 90.729523,277.41375 90.729523,277.60418 90.590362,277.73602 90.458526,277.86785 90.268097,277.86785 L 88.898466,277.86785 88.898466,282.27704 Q 88.898466,284.25458 90.868683,284.25458 Z"
       style="font-style:normal;font-variant:normal;font-weight:300;font-stretch:normal;font-size:15.0000124px;font-family:Comfortaa;-inkscape-font-specification:'Comfortaa, Light';text-align:start;writing-mode:lr-tb;text-anchor:start;stroke-width:0.93750077"
       id="path4214" />
    <path
       d="M 94.318392,274.98211 Q 94.318392,275.23846 94.14261,275.41424 93.966829,275.59002 93.710481,275.59002 93.461457,275.59002 93.278352,275.41424 93.10257,275.23846 93.10257,274.98211 93.10257,274.73308 93.278352,274.5573 93.461457,274.3742 93.710481,274.3742 93.966829,274.3742 94.14261,274.5573 94.318392,274.73308 94.318392,274.98211 Z M 93.256379,277.41375 Q 93.256379,277.22332 93.388215,277.09149 93.520051,276.95965 93.710481,276.95965 93.900911,276.95965 94.032747,277.09149 94.171907,277.22332 94.171907,277.41375 L 94.171907,284.70868 Q 94.171907,284.89911 94.032747,285.03094 93.900911,285.16278 93.710481,285.16278 93.520051,285.16278 93.388215,285.03094 93.256379,284.89911 93.256379,284.70868 L 93.256379,277.41375 Z"
       style="font-style:normal;font-variant:normal;font-weight:300;font-stretch:normal;font-size:15.0000124px;font-family:Comfortaa;-inkscape-font-specification:'Comfortaa, Light';text-align:start;writing-mode:lr-tb;text-anchor:start;stroke-width:0.93750077"
       id="path4216" />
    <path
       d="M 96.120152,277.41375 Q 96.120152,277.22332 96.251988,277.09149 96.383824,276.95965 96.574254,276.95965 96.764684,276.95965 96.89652,277.09149 97.028356,277.22332 97.028356,277.41375 L 97.028356,278.26336 Q 98.376013,276.95965 99.9141,276.95965 101.49613,276.95965 102.59477,278.07293 103.71537,279.18621 103.71537,280.76092 L 103.71537,284.70868 Q 103.71537,284.89911 103.57621,285.03094 103.44438,285.16278 103.25395,285.16278 103.06352,285.16278 102.93168,285.03094 102.79985,284.89911 102.79985,284.70868 L 102.79985,280.76092 Q 102.79985,279.55242 101.95023,278.72479 101.10062,277.86785 99.9141,277.86785 98.727576,277.86785 97.870642,278.72479 97.028356,279.55975 97.028356,280.76092 L 97.028356,284.70868 Q 97.028356,284.89911 96.89652,285.03094 96.764684,285.16278 96.574254,285.16278 96.383824,285.16278 96.251988,285.03094 96.120152,284.89911 96.120152,284.70868 L 96.120152,277.41375 Z"
       style="font-style:normal;font-variant:normal;font-weight:300;font-stretch:normal;font-size:15.0000124px;font-family:Comfortaa;-inkscape-font-specification:'Comfortaa, Light';text-align:start;writing-mode:lr-tb;text-anchor:start;stroke-width:0.93750077"
       id="path4218" />
    <path
       d="M 109.00346,277.86785 Q 107.6851,277.86785 106.7476,278.79803 105.8101,279.73553 105.8101,281.05389 105.8101,282.36493 106.7476,283.30243 107.6851,284.23993 109.00346,284.23993 110.32182,284.23993 111.25933,283.30243 112.1895,282.37225 112.1895,281.05389 112.1895,279.72821 111.25933,278.79803 110.32182,277.86785 109.00346,277.86785 Z M 112.1895,283.66131 Q 110.84917,285.14081 109.00346,285.14081 107.30424,285.14081 106.10307,283.94696 104.9019,282.74579 104.9019,281.05389 104.9019,279.35467 106.10307,278.16082 107.30424,276.95965 109.00346,276.95965 110.70268,276.95965 111.90386,278.16082 113.10503,279.35467 113.10503,281.05389 L 113.10503,285.1994 Q 113.10503,286.45917 112.1895,287.38935 110.90044,288.67841 109.06938,288.67841 107.23833,288.67841 105.95659,287.38935 105.48051,286.93524 105.18754,286.40057 105.10698,286.26141 105.10698,286.12958 105.10698,285.93915 105.23881,285.80731 105.37065,285.67548 105.56108,285.67548 105.75151,285.67548 105.89067,285.81464 105.94926,285.86591 105.99321,285.9538 106.24223,286.39325 106.60112,286.75214 107.11381,287.26483 107.72905,287.51386 108.35161,287.7702 109.06938,287.7702 110.51958,287.7702 111.54497,286.74481 112.1895,285.96845 112.1895,285.1994 L 112.1895,283.66131 Z"
       style="font-style:normal;font-variant:normal;font-weight:300;font-stretch:normal;font-size:15.0000124px;font-family:Comfortaa;-inkscape-font-specification:'Comfortaa, Light';text-align:start;writing-mode:lr-tb;text-anchor:start;stroke-width:0.93750077"
       id="path4220" />
    <path
       d="M 118.67144,273.89812 Q 118.67144,273.70769 118.80328,273.57586 118.93511,273.44402 119.11822,273.44402 119.30865,273.44402 119.44048,273.57586 119.57232,273.70769 119.57232,273.89812 L 119.57232,284.2619 125.73199,284.2619 Q 125.92242,284.2619 126.05426,284.39374 126.1861,284.52557 126.1861,284.70868 126.1861,284.89911 126.05426,285.03094 125.92242,285.16278 125.73199,285.16278 L 119.11822,285.16278 Q 118.93511,285.16278 118.80328,285.03094 118.67144,284.89911 118.67144,284.70868 L 118.67144,273.89812 Z"
       style="font-style:normal;font-variant:normal;font-weight:300;font-stretch:normal;font-size:15.0000124px;font-family:Comfortaa;-inkscape-font-specification:'Comfortaa, Light';text-align:start;writing-mode:lr-tb;text-anchor:start;stroke-width:0.93750077"
       id="path4222" />
    <path
       d="M 131.18122,277.86785 Q 129.86286,277.86785 128.92536,278.80535 127.98786,279.74285 127.98786,281.06121 127.98786,282.37958 128.92536,283.31708 129.86286,284.25458 131.18122,284.25458 132.49958,284.25458 133.43708,283.31708 134.36726,282.3869 134.36726,281.06121 134.36726,279.73553 133.43708,278.80535 132.49958,277.86785 131.18122,277.86785 Z M 134.36726,283.67596 Q 132.88776,285.16278 131.18122,285.16278 129.482,285.16278 128.28082,283.96161 127.07965,282.76044 127.07965,281.06121 127.07965,279.36199 128.28082,278.16082 129.482,276.95965 131.18122,276.95965 132.88044,276.95965 134.08161,278.16082 135.28278,279.36199 135.28278,281.06121 L 135.28278,284.70868 Q 135.28278,284.89911 135.15095,285.03094 135.01911,285.16278 134.82868,285.16278 134.63825,285.16278 134.49909,285.03094 134.36726,284.89911 134.36726,284.70868 L 134.36726,283.67596 Z"
       style="font-style:normal;font-variant:normal;font-weight:300;font-stretch:normal;font-size:15.0000124px;font-family:Comfortaa;-inkscape-font-specification:'Comfortaa, Light';text-align:start;writing-mode:lr-tb;text-anchor:start;stroke-width:0.93750077"
       id="path4224" />
    <path
       d="M 140.55622,284.25458 Q 141.87459,284.25458 142.81209,283.31708 143.74226,282.3869 143.74226,281.06121 143.74226,279.73553 142.81209,278.80535 141.87459,277.86785 140.55622,277.86785 139.23786,277.86785 138.30036,278.80535 137.36286,279.74285 137.36286,281.06121 137.36286,282.37958 138.30036,283.31708 139.23786,284.25458 140.55622,284.25458 Z M 137.36286,278.44647 137.65583,278.16082 Q 138.857,276.95965 140.55622,276.95965 142.25545,276.95965 143.45662,278.16082 144.65779,279.36199 144.65779,281.06121 144.65779,282.76044 143.45662,283.96161 142.25545,285.16278 140.55622,285.16278 138.857,285.16278 137.65583,283.96161 136.45466,282.76044 136.45466,281.06121 L 136.45466,273.89812 Q 136.45466,273.70769 136.5865,273.57586 136.71833,273.44402 136.90876,273.44402 137.09919,273.44402 137.23103,273.57586 137.36286,273.70769 137.36286,273.89812 L 137.36286,278.44647 Z"
       style="font-style:normal;font-variant:normal;font-weight:300;font-stretch:normal;font-size:15.0000124px;font-family:Comfortaa;-inkscape-font-specification:'Comfortaa, Light';text-align:start;writing-mode:lr-tb;text-anchor:start;stroke-width:0.93750077"
       id="path4226" />
    <path
       d="M 147.24324,280.91473 147.25057,280.91473 Q 146.91365,280.79022 146.6866,280.67303 146.45955,280.54852 146.33504,280.41668 145.84432,279.91131 145.84432,279.23748 145.84432,278.55633 146.35701,278.02899 147.4117,276.95965 149.11092,276.95965 150.01912,276.95965 150.81746,277.34783 151.6158,277.72869 152.26034,278.43182 152.3409,278.53436 152.3409,278.68817 152.3409,278.8786 152.20174,279.01776 152.06991,279.14959 151.87948,279.14959 151.69637,279.14959 151.59383,279.0324 L 151.36678,278.80535 Q 150.42928,277.86785 149.11092,277.86785 147.78523,277.86785 146.97957,278.71746 146.75984,278.97381 146.75984,279.34735 146.77449,279.56707 146.89168,279.72821 147.00887,279.88934 147.23592,279.96991 L 150.9786,281.2077 150.97127,281.2077 Q 151.30819,281.33221 151.53524,281.45672 151.76229,281.57391 151.87948,281.70575 152.37752,282.20379 152.37752,282.88495 152.37752,283.57342 151.8575,284.09344 150.81014,285.16278 149.11092,285.16278 147.27254,285.16278 145.9615,283.69794 145.88094,283.58807 145.88094,283.43426 145.88094,283.24383 146.01277,283.112 146.14461,282.97284 146.33504,282.97284 146.51082,282.97284 146.62801,283.09003 L 146.85506,283.31708 Q 147.79256,284.25458 149.11092,284.25458 150.42928,284.25458 151.22762,283.41229 151.45467,283.15594 151.45467,282.78241 151.41805,282.31366 150.9786,282.15252 L 147.24324,280.91473 Z"
       style="font-style:normal;font-variant:normal;font-weight:300;font-stretch:normal;font-size:15.0000124px;font-family:Comfortaa;-inkscape-font-specification:'Comfortaa, Light';text-align:start;writing-mode:lr-tb;text-anchor:start;stroke-width:0.93750077"
       id="path4228" />
  </g>
</svg>
