<?xml version="1.0" encoding="UTF-8" standalone="no"?>
<!-- Created with Inkscape (http://www.inkscape.org/) -->

<svg
   xmlns:dc="http://purl.org/dc/elements/1.1/"
   xmlns:cc="http://creativecommons.org/ns#"
   xmlns:rdf="http://www.w3.org/1999/02/22-rdf-syntax-ns#"
   xmlns:svg="http://www.w3.org/2000/svg"
   xmlns="http://www.w3.org/2000/svg"
   xmlns:sodipodi="http://sodipodi.sourceforge.net/DTD/sodipodi-0.dtd"
   xmlns:inkscape="http://www.inkscape.org/namespaces/inkscape"
   width="297mm"
   height="210mm"
   viewBox="0 0 297 210"
   version="1.1"
   id="svg8"
   inkscape:version="0.92.3 (2405546, 2018-03-11)"
   sodipodi:docname="shade-big.1.svg">
  <defs
     id="defs2" />
  <sodipodi:namedview
     id="base"
     pagecolor="#ffffff"
     bordercolor="#666666"
     borderopacity="1.0"
     inkscape:pageopacity="0.0"
     inkscape:pageshadow="2"
     inkscape:zoom="6.1026073"
     inkscape:cx="19.204839"
     inkscape:cy="477.74075"
     inkscape:document-units="mm"
     inkscape:current-layer="layer1"
     showgrid="false"
     inkscape:snap-bbox="true"
     inkscape:snap-smooth-nodes="true"
     inkscape:snap-object-midpoints="true"
     inkscape:snap-center="true"
     inkscape:measure-start="43.8895,225.444"
     inkscape:measure-end="49.8761,225.444"
     showguides="true"
     inkscape:object-paths="true"
     inkscape:window-width="1920"
     inkscape:window-height="996"
     inkscape:window-x="0"
     inkscape:window-y="27"
     inkscape:window-maximized="1"
     inkscape:bbox-paths="true"
     inkscape:bbox-nodes="true"
     inkscape:snap-bbox-edge-midpoints="true"
     inkscape:lockguides="true"
     inkscape:snap-nodes="true"
     inkscape:snap-others="true"
     inkscape:snap-midpoints="true"
     inkscape:snap-bbox-midpoints="true"
     inkscape:snap-intersection-paths="true" />
  <metadata
     id="metadata5">
    <rdf:RDF>
      <cc:Work
         rdf:about="">
        <dc:format>image/svg+xml</dc:format>
        <dc:type
           rdf:resource="http://purl.org/dc/dcmitype/StillImage" />
        <dc:title />
      </cc:Work>
    </rdf:RDF>
  </metadata>
  <g
     inkscape:label="Calque 1"
     inkscape:groupmode="layer"
     id="layer1"
     transform="translate(0,-87)">
    <path
       style="color:#000000;font-style:normal;font-variant:normal;font-weight:normal;font-stretch:normal;font-size:medium;line-height:normal;font-family:sans-serif;font-variant-ligatures:normal;font-variant-position:normal;font-variant-caps:normal;font-variant-numeric:normal;font-variant-alternates:normal;font-feature-settings:normal;text-indent:0;text-align:start;text-decoration:none;text-decoration-line:none;text-decoration-style:solid;text-decoration-color:#000000;letter-spacing:normal;word-spacing:normal;text-transform:none;writing-mode:lr-tb;direction:ltr;text-orientation:mixed;dominant-baseline:auto;baseline-shift:baseline;text-anchor:start;white-space:normal;shape-padding:0;clip-rule:nonzero;display:inline;overflow:visible;visibility:visible;opacity:1;isolation:auto;mix-blend-mode:normal;color-interpolation:sRGB;color-interpolation-filters:linearRGB;solid-color:#000000;solid-opacity:1;vector-effect:none;fill:none;fill-opacity:1;fill-rule:nonzero;stroke:#ff0010;stroke-width:0.1;stroke-linecap:butt;stroke-linejoin:miter;stroke-miterlimit:4;stroke-dasharray:none;stroke-dashoffset:0;stroke-opacity:1;paint-order:normal;color-rendering:auto;image-rendering:auto;shape-rendering:auto;text-rendering:auto;enable-background:accumulate"
       d="M 73.528183,295.07466 74.612353,296.95 H 217.22535 L 218.30747,295.07466 M 147.00122,171.56901 H 144.83701 M 145.9191,174.69387 C 148.22542,178.68855 150.37011,182.40325 152.66701,186.38155 H 139.1712 C 141.37806,182.55922 143.74899,178.45262 145.9191,174.69387 Z M 139.16913,188.88165 H 152.66701 C 150.41594,192.77703 148.16759,196.674 145.9191,200.57086 143.6698,196.67408 141.41944,192.77788 139.16913,188.88165 Z M 135.47841,198.71722 136.92843,196.20574 139.43941,197.65526 137.98989,200.16624 Z M 153.84835,200.16624 152.3983,197.65476 154.91028,196.20524 156.3593,198.71672 Z M 130.25701,204.32102 H 161.58119 C 156.19997,213.63662 150.91899,222.78777 145.9191,231.44806 140.53949,222.13163 135.25666,212.98067 130.25701,204.32102 Z M 163.74541,205.56953 C 166.00444,209.48219 168.27174,213.40953 170.49384,217.25821 H 156.9975 C 159.24691,213.36196 161.49602,209.46579 163.74541,205.56953 Z M 128.09177,205.57107 C 130.34115,209.46679 132.5908,213.36249 134.84021,217.25821 H 121.34386 C 123.62513,213.30709 125.83485,209.48005 128.09177,205.57107 Z M 121.34283,219.75831 H 134.84071 C 132.59011,223.65346 130.34152,227.54974 128.0928,231.44597 125.843,227.54998 123.5929,223.65415 121.34283,219.75831 Z M 156.997,219.75831 H 170.49487 C 168.24404,223.65441 165.9945,227.55125 163.7449,231.44806 161.49756,227.55035 159.2472,223.65438 156.997,219.75831 Z M 137.00492,221.00786 C 139.25467,224.90451 141.50464,228.80143 143.75439,232.69811 H 130.25701 C 132.50682,228.80164 134.75583,224.90475 137.00492,221.00786 Z M 172.65909,221.00786 C 174.86736,224.83263 177.25049,228.96113 179.40803,232.69811 H 165.90909 C 168.15844,228.80098 170.40878,224.90443 172.65909,221.00786 Z M 119.17862,221.00837 C 121.4276,224.90512 123.67709,228.80161 125.92653,232.69811 H 112.42968 C 114.73633,228.70287 116.89009,224.97211 119.17862,221.00837 Z M 154.83225,221.00889 C 157.08232,224.90504 159.33173,228.80159 161.58119,232.69811 H 148.08385 C 150.33339,228.80177 152.58271,224.9052 154.83225,221.00889 Z M 112.43071,235.19768 H 179.407 C 167.87984,255.16639 156.60959,274.68346 145.9191,293.19982 134.38946,273.23235 123.12157,253.71489 112.43071,235.19768 Z M 110.26496,236.44723 C 112.57728,240.45233 114.74723,244.211 117.01286,248.13541 H 103.51653 C 105.72447,244.3112 108.10773,240.18365 110.26496,236.44723 Z M 181.57328,236.44723 C 183.8796,240.44188 186.03296,244.17219 188.32119,248.13541 H 174.82434 C 177.07049,244.24537 179.40438,240.20375 181.57328,236.44723 Z M 103.51653,250.63551 H 117.01441 C 114.76441,254.53121 112.51442,258.42693 110.26444,262.32266 108.01628,258.42627 105.76635,254.53091 103.51653,250.63551 Z M 174.82331,250.63551 H 188.32119 C 186.07072,254.53054 183.82205,258.42664 181.57328,262.32266 179.32329,258.42693 177.0733,254.53123 174.82331,250.63551 Z M 190.4859,251.88453 C 192.76775,255.83666 194.97786,259.66478 197.23537,263.57477 H 183.73749 C 185.98748,259.6783 188.23665,255.78141 190.4859,251.88453 Z M 172.65909,251.88503 C 174.90774,255.782 177.15741,259.67836 179.407,263.57477 H 165.90962 C 168.22231,259.56916 170.39282,255.80988 172.65909,251.88503 Z M 101.35129,251.88556 C 103.60148,255.78173 105.8511,259.67828 108.10075,263.57477 H 94.602343 C 96.861503,259.6619 99.129083,255.73442 101.35129,251.88556 Z M 119.17759,251.88556 C 121.42358,255.77591 123.75702,259.81792 125.92602,263.57477 H 112.43071 C 114.67844,259.67767 116.92807,255.78163 119.17759,251.88556 Z M 94.602343,266.07487 H 125.92653 C 120.54899,275.39201 115.26421,284.54017 110.26444,293.19982 104.81805,283.76496 100.18864,275.74843 94.602343,266.07487 Z M 165.90909,266.07487 H 197.23537 C 191.85507,275.39037 186.57285,284.54019 181.57328,293.19982 176.12514,283.76552 171.49558,275.74875 165.90909,266.07487 Z M 163.74541,267.32336 170.49434,279.01207 H 156.99647 C 159.24252,275.12198 161.57638,271.0802 163.74541,267.32336 Z M 128.09177,267.32545 C 130.40399,271.33016 132.57439,275.08835 134.84021,279.01207 H 121.34336 C 123.59264,275.11648 125.84247,271.22102 128.09177,267.32545 Z M 94.871583,274.84695 93.422053,277.35789 90.910583,275.9089 92.360623,273.39743 Z M 198.41565,277.35789 196.96563,274.84642 199.47761,273.3969 200.92662,275.90837 Z M 85.690233,281.51217 H 99.186563 C 96.937913,285.40911 94.688253,289.30547 92.438653,293.20188 90.188813,289.30552 87.939543,285.40885 85.690233,281.51217 Z M 121.34283,281.51217 H 134.84071 C 132.59045,285.4075 130.34168,289.3037 128.0928,293.19982 125.84265,289.30402 123.59274,285.40811 121.34283,281.51217 Z M 156.997,281.51217 H 170.49487 C 168.24504,285.40813 165.99497,289.30399 163.7449,293.19982 161.49655,289.30338 159.24672,285.40782 156.997,281.51217 Z M 192.64961,281.51217 H 206.14749 C 203.89721,285.4075 201.64843,289.30367 199.39958,293.19982 197.14941,289.30404 194.89952,285.40811 192.64961,281.51217 Z M 83.524473,282.76172 C 85.774243,286.65779 88.024093,290.55383 90.273933,294.44987 H 76.776563 C 79.082963,290.45509 81.227483,286.74012 83.524473,282.76172 Z M 137.00545,282.76172 C 139.25168,286.65152 141.58541,290.69329 143.75439,294.44987 H 130.25754 C 132.50775,290.55433 134.75654,286.658 137.00545,282.76172 Z M 172.65909,282.76172 C 174.90845,286.65792 177.15762,290.55367 179.407,294.44987 H 165.90962 C 168.15948,290.55383 170.40928,286.65779 172.65909,282.76172 Z M 208.31323,282.76172 C 210.52023,286.58421 212.89145,290.69094 215.06167,294.44987 H 201.5643 C 203.8137,290.5537 206.06348,286.65771 208.31323,282.76172 Z M 119.17862,282.76222 C 121.42673,286.65869 123.67643,290.55425 125.92602,294.44987 H 112.43123 C 114.68048,290.55386 116.92938,286.65824 119.17862,282.76222 Z M 154.83175,282.76222 C 157.08124,286.65821 159.33097,290.55404 161.58069,294.44987 H 148.08385 C 150.39617,290.44482 152.5661,286.68626 154.83175,282.76222 Z M 102.80184,291.48003 99.901763,291.48056 V 288.58046 H 102.80184 Z M 191.93645,291.48003 H 189.03638 V 288.58046 H 191.93645 Z"
       id="path849-4-6-4-9-85-8-1"
       inkscape:connector-curvature="0"
       sodipodi:nodetypes="ccccccccccccccccccccccccccccccccccccccccccccccccccccccccccccccccccccccccccccccccccccccccccccccccccccccccccccccccccccccccccccccccccccccccccccccccccccccccccccsccccccccccccccc" />
    <path
       style="color:#000000;font-style:normal;font-variant:normal;font-weight:normal;font-stretch:normal;font-size:medium;line-height:normal;font-family:sans-serif;font-variant-ligatures:normal;font-variant-position:normal;font-variant-caps:normal;font-variant-numeric:normal;font-variant-alternates:normal;font-feature-settings:normal;text-indent:0;text-align:start;text-decoration:none;text-decoration-line:none;text-decoration-style:solid;text-decoration-color:#000000;letter-spacing:normal;word-spacing:normal;text-transform:none;writing-mode:lr-tb;direction:ltr;text-orientation:mixed;dominant-baseline:auto;baseline-shift:baseline;text-anchor:start;white-space:normal;shape-padding:0;clip-rule:nonzero;display:inline;overflow:visible;visibility:visible;opacity:1;isolation:auto;mix-blend-mode:normal;color-interpolation:sRGB;color-interpolation-filters:linearRGB;solid-color:#000000;solid-opacity:1;vector-effect:none;fill:none;fill-opacity:1;fill-rule:nonzero;stroke:#ff0010;stroke-width:0.1;stroke-linecap:butt;stroke-linejoin:miter;stroke-miterlimit:4;stroke-dasharray:none;stroke-dashoffset:0;stroke-opacity:1;paint-order:normal;color-rendering:auto;image-rendering:auto;shape-rendering:auto;text-rendering:auto;enable-background:accumulate"
       d="M 71.366571,295.07466 C 46.845181,252.60697 22.811335,210.97944 0.05774462,171.56901 L 1.1419146,169.69367 H 143.75489 L 144.83701,171.56901 C 120.31778,214.03757 96.284237,255.66439 73.530781,295.07466 Z M 72.448661,291.9498 C 74.754981,287.95512 76.899671,284.24042 79.196571,280.26212 H 65.700761 C 67.907621,284.08445 70.278551,288.19105 72.448661,291.9498 Z M 65.698691,277.76202 H 79.196571 C 76.945501,273.86664 74.697151,269.96967 72.448661,266.07281 70.199361,269.96959 67.949001,273.86579 65.698691,277.76202 Z M 62.007971,267.92645 63.457991,270.43793 65.968971,268.98841 64.519451,266.47743 Z M 80.377911,266.47743 78.927861,268.98891 81.439841,270.43843 82.888857,267.92695 Z M 56.786571,262.32265 H 88.110747 C 82.729527,253.00705 77.448551,243.8559 72.448661,235.19561 67.069051,244.51204 61.786221,253.663 56.786571,262.32265 Z M 90.274967,261.07414 C 92.533997,257.16148 94.801297,253.23414 97.023397,249.38546 H 83.527057 C 85.776467,253.28171 88.025577,257.17788 90.274967,261.07414 Z M 54.621331,261.0726 C 56.870711,257.17688 59.120361,253.28118 61.369761,249.38546 H 47.873421 C 50.154691,253.33658 52.364411,257.16362 54.621331,261.0726 Z M 47.872381,246.88536 H 61.370261 C 59.119671,242.99021 56.871081,239.09393 54.622361,235.1977 52.372561,239.09369 50.122461,242.98952 47.872381,246.88536 Z M 83.526557,246.88536 H 97.024427 C 94.773597,242.98926 92.524057,239.09242 90.274457,235.19561 88.027117,239.09332 85.776757,242.98929 83.526557,246.88536 Z M 63.534481,245.63581 C 65.784231,241.73916 68.034201,237.84224 70.283951,233.94556 H 56.786571 C 59.036381,237.84203 61.285391,241.73892 63.534481,245.63581 Z M 99.188643,245.63581 C 101.3969,241.81104 103.78003,237.68254 105.93757,233.94556 H 92.438647 C 94.687997,237.84269 96.938337,241.73924 99.188643,245.63581 Z M 45.708181,245.6353 C 47.957151,241.73855 50.206641,237.84206 52.456091,233.94556 H 38.959241 C 41.265891,237.9408 43.419651,241.67156 45.708181,245.6353 Z M 81.361811,245.63478 C 83.611877,241.73863 85.861287,237.84208 88.110747,233.94556 H 74.613411 C 76.862951,237.8419 79.112271,241.73847 81.361811,245.63478 Z M 38.960271,231.44599 H 105.93654 C 94.409397,211.47728 83.139147,191.96021 72.448661,173.44385 60.919021,193.41132 49.651131,212.92878 38.960271,231.44599 Z M 36.794521,230.19644 C 39.106841,226.19134 41.276791,222.43267 43.542421,218.50826 H 30.046091 C 32.254031,222.33247 34.637291,226.46002 36.794521,230.19644 Z M 108.10282,230.19644 C 110.40914,226.20179 112.5625,222.47148 114.85073,218.50826 H 101.35388 C 103.60003,222.3983 105.93392,226.43992 108.10282,230.19644 Z M 30.046091,216.00816 H 43.543971 C 41.293961,212.11246 39.043981,208.21674 36.793991,204.32101 34.545841,208.2174 32.295911,212.11276 30.046091,216.00816 Z M 101.35285,216.00816 H 114.85073 C 112.60026,212.11313 110.35159,208.21703 108.10282,204.32101 105.85283,208.21674 103.60284,212.11244 101.35285,216.00816 Z M 117.01544,214.75914 C 119.29729,210.80701 121.5074,206.97889 123.76491,203.0689 H 110.26703 C 112.51702,206.96537 114.76619,210.86226 117.01544,214.75914 Z M 99.188643,214.75864 C 101.43728,210.86167 103.68695,206.96531 105.93654,203.0689 H 92.439177 C 94.751867,207.07451 96.922377,210.83379 99.188643,214.75864 Z M 27.880851,214.75811 C 30.131041,210.86194 32.380651,206.96539 34.630311,203.0689 H 21.131905 C 23.391065,206.98177 25.658645,210.90925 27.880851,214.75811 Z M 45.707151,214.75811 C 47.953141,210.86776 50.286581,206.82575 52.455581,203.0689 H 38.960271 C 41.208001,206.966 43.457631,210.86204 45.707151,214.75811 Z M 21.131905,200.5688 H 52.456091 C 47.078541,191.25166 41.793771,182.1035 36.793991,173.44385 31.347611,182.87871 26.718201,190.89524 21.131905,200.5688 Z M 92.438647,200.5688 H 123.76491 C 118.38461,191.2533 113.10239,182.10348 108.10282,173.44385 102.65468,182.87815 98.025133,190.89492 92.438647,200.5688 Z M 90.274967,199.32031 97.023897,187.6316 H 83.526027 C 85.772077,191.52169 88.105937,195.56347 90.274967,199.32031 Z M 54.621331,199.31822 C 56.933551,195.31351 59.103951,191.55532 61.369761,187.6316 H 47.872921 C 50.122201,191.52719 52.372031,195.42265 54.621331,199.31822 Z M 21.401145,191.79672 19.951615,189.28578 17.440145,190.73477 18.890185,193.24624 Z M 124.94519,189.28578 123.49517,191.79725 126.00715,193.24677 127.45616,190.7353 Z M 12.219795,185.1315 H 25.716125 C 23.467475,181.23456 21.217815,177.3382 18.968215,173.44179 16.718375,177.33815 14.469105,181.23482 12.219795,185.1315 Z M 47.872381,185.1315 H 61.370261 C 59.120001,181.23617 56.871241,177.33997 54.622361,173.44385 52.372211,177.33965 50.122301,181.23556 47.872381,185.1315 Z M 83.526557,185.1315 H 97.024427 C 94.774597,181.23554 92.524527,177.33968 90.274457,173.44385 88.026107,177.34029 85.776277,181.23585 83.526557,185.1315 Z M 119.17915,185.1315 H 132.67703 C 130.42675,181.23617 128.17797,177.34 125.92912,173.44385 123.67895,177.33963 121.42906,181.23556 119.17915,185.1315 Z M 10.054035,183.88195 C 12.303805,179.98588 14.553655,176.08984 16.803495,172.1938 H 3.3061246 C 5.6125246,176.18858 7.7570448,179.90355 10.054035,183.88195 Z M 63.535011,183.88195 C 65.781241,179.99215 68.114971,175.95038 70.283951,172.1938 H 56.787101 C 59.037311,176.08934 61.286101,179.98567 63.535011,183.88195 Z M 99.188643,183.88195 C 101.43799,179.98575 103.68716,176.09 105.93654,172.1938 H 92.439177 C 94.689037,176.08984 96.938837,179.98588 99.188643,183.88195 Z M 134.84277,183.88195 C 137.04977,180.05946 139.42099,175.95273 141.59121,172.1938 H 128.09384 C 130.34324,176.08997 132.59302,179.98596 134.84277,183.88195 Z M 45.708181,183.88145 C 47.956291,179.98498 50.205991,176.08942 52.455581,172.1938 H 38.960791 C 41.210041,176.08981 43.458941,179.98543 45.708181,183.88145 Z M 81.361311,183.88145 C 83.610797,179.98546 85.860527,176.08963 88.110247,172.1938 H 74.613411 C 76.925731,176.19885 79.095661,179.95741 81.361311,183.88145 Z M 29.331401,175.16364 26.431325,175.16311 V 178.06321 H 29.331401 Z M 118.46599,175.16364 H 115.56592 V 178.06321 H 118.46599 Z"
       id="path849-4-6-4-9-85-8-1-1"
       inkscape:connector-curvature="0"
       sodipodi:nodetypes="cccccccccccccccccccccccccccccccccccccccccccccccccccccccccccccccccccccccccccccccccccccccccccccccccccccccccccccccccccccccccccccccccccccccccccccccccccccccccccccsccccccccccccccc" />
    <path
       style="color:#000000;font-style:normal;font-variant:normal;font-weight:normal;font-stretch:normal;font-size:medium;line-height:normal;font-family:sans-serif;font-variant-ligatures:normal;font-variant-position:normal;font-variant-caps:normal;font-variant-numeric:normal;font-variant-alternates:normal;font-feature-settings:normal;text-indent:0;text-align:start;text-decoration:none;text-decoration-line:none;text-decoration-style:solid;text-decoration-color:#000000;letter-spacing:normal;word-spacing:normal;text-transform:none;writing-mode:lr-tb;direction:ltr;text-orientation:mixed;dominant-baseline:auto;baseline-shift:baseline;text-anchor:start;white-space:normal;shape-padding:0;clip-rule:nonzero;display:inline;overflow:visible;visibility:visible;opacity:1;isolation:auto;mix-blend-mode:normal;color-interpolation:sRGB;color-interpolation-filters:linearRGB;solid-color:#000000;solid-opacity:1;vector-effect:none;fill:none;fill-opacity:1;fill-rule:nonzero;stroke:#ff0010;stroke-width:0.1;stroke-linecap:butt;stroke-linejoin:miter;stroke-miterlimit:4;stroke-dasharray:none;stroke-dashoffset:0;stroke-opacity:1;paint-order:normal;color-rendering:auto;image-rendering:auto;shape-rendering:auto;text-rendering:auto;enable-background:accumulate"
       d="M 218.31005,295.07466 C 193.78866,252.60697 169.75481,210.97944 147.00122,171.56901 L 148.08539,169.69367 H 290.69839 L 291.78051,171.56901 C 267.26127,214.03757 243.22772,255.66439 220.47426,295.07466 Z M 219.39214,291.9498 C 221.69846,287.95512 223.84315,284.24042 226.14005,280.26212 H 212.64424 C 214.8511,284.08445 217.22203,288.19105 219.39214,291.9498 Z M 212.64217,277.76202 H 226.14005 C 223.88898,273.86664 221.64062,269.96967 219.39214,266.07281 217.14284,269.96959 214.89248,273.86579 212.64217,277.76202 Z M 208.95145,267.92645 210.40147,270.43793 212.91245,268.98841 211.46293,266.47743 Z M 227.32139,266.47743 225.87134,268.98891 228.38332,270.43843 229.83234,267.92695 Z M 203.73005,262.32265 H 235.05423 C 229.67301,253.00705 224.39203,243.8559 219.39214,235.19561 214.01253,244.51204 208.7297,253.663 203.73005,262.32265 Z M 237.21845,261.07414 C 239.47748,257.16148 241.74477,253.23414 243.96688,249.38546 H 230.47054 C 232.71995,253.28171 234.96906,257.17788 237.21845,261.07414 Z M 201.56481,261.0726 C 203.81419,257.17688 206.06384,253.28118 208.31325,249.38546 H 194.8169 C 197.09817,253.33658 199.30789,257.16362 201.56481,261.0726 Z M 194.81587,246.88536 H 208.31375 C 206.06315,242.99021 203.81456,239.09393 201.56584,235.1977 199.31604,239.09369 197.06594,242.98952 194.81587,246.88536 Z M 230.47004,246.88536 H 243.96791 C 241.71707,242.98926 239.46753,239.09242 237.21793,235.19561 234.97059,239.09332 232.72023,242.98929 230.47004,246.88536 Z M 210.47796,245.63581 C 212.72771,241.73916 214.97768,237.84224 217.22743,233.94556 H 203.73005 C 205.97986,237.84203 208.22887,241.73892 210.47796,245.63581 Z M 246.13214,245.63581 C 248.3404,241.81104 250.72353,237.68254 252.88107,233.94556 H 239.38213 C 241.63147,237.84269 243.88182,241.73924 246.13214,245.63581 Z M 192.65166,245.6353 C 194.90064,241.73855 197.15013,237.84206 199.39957,233.94556 H 185.90272 C 188.20937,237.9408 190.36313,241.67156 192.65166,245.6353 Z M 228.30529,245.63478 C 230.55536,241.73863 232.80477,237.84208 235.05423,233.94556 H 221.55689 C 223.80643,237.8419 226.05574,241.73847 228.30529,245.63478 Z M 185.90375,231.44599 H 252.88003 C 241.35288,211.47728 230.08262,191.96021 219.39214,173.44385 207.8625,193.41132 196.59461,212.92878 185.90375,231.44599 Z M 183.738,230.19644 C 186.05032,226.19134 188.22027,222.43267 190.4859,218.50826 H 176.98957 C 179.19751,222.33247 181.58077,226.46002 183.738,230.19644 Z M 255.04632,230.19644 C 257.35263,226.20179 259.506,222.47148 261.79423,218.50826 H 248.29738 C 250.54353,222.3983 252.87742,226.43992 255.04632,230.19644 Z M 176.98957,216.00816 H 190.48745 C 188.23745,212.11246 185.98746,208.21674 183.73748,204.32101 181.48932,208.2174 179.23939,212.11276 176.98957,216.00816 Z M 248.29635,216.00816 H 261.79423 C 259.54376,212.11313 257.29509,208.21703 255.04632,204.32101 252.79632,208.21674 250.54633,212.11244 248.29635,216.00816 Z M 263.95894,214.75914 C 266.24078,210.80701 268.4509,206.97889 270.70841,203.0689 H 257.21052 C 259.46052,206.96537 261.70969,210.86226 263.95894,214.75914 Z M 246.13214,214.75864 C 248.38078,210.86167 250.63044,206.96531 252.88003,203.0689 H 239.38265 C 241.69535,207.07451 243.86585,210.83379 246.13214,214.75864 Z M 174.82433,214.75811 C 177.07452,210.86194 179.32414,206.96539 181.57379,203.0689 H 168.07538 C 170.33454,206.98177 172.60212,210.90925 174.82433,214.75811 Z M 192.65063,214.75811 C 194.89662,210.86776 197.23006,206.82575 199.39906,203.0689 H 185.90375 C 188.15148,206.966 190.40111,210.86204 192.65063,214.75811 Z M 168.07538,200.5688 H 199.39957 C 194.02203,191.25166 188.73725,182.1035 183.73748,173.44385 178.29109,182.87871 173.66168,190.89524 168.07538,200.5688 Z M 239.38213,200.5688 H 270.70841 C 265.32811,191.2533 260.04589,182.10348 255.04632,173.44385 249.59818,182.87815 244.96863,190.89492 239.38213,200.5688 Z M 237.21845,199.32031 243.96738,187.6316 H 230.46951 C 232.71556,191.52169 235.04942,195.56347 237.21845,199.32031 Z M 201.56481,199.31822 C 203.87703,195.31351 206.04743,191.55532 208.31325,187.6316 H 194.8164 C 197.06568,191.52719 199.31551,195.42265 201.56481,199.31822 Z M 168.34462,191.79672 166.89509,189.28578 164.38362,190.73477 165.83366,193.24624 Z M 271.88869,189.28578 270.43866,191.79725 272.95065,193.24677 274.39966,190.7353 Z M 159.16327,185.1315 H 172.6596 C 170.41095,181.23456 168.16129,177.3382 165.91169,173.44179 163.66185,177.33815 161.41258,181.23482 159.16327,185.1315 Z M 194.81587,185.1315 H 208.31375 C 206.06349,181.23617 203.81472,177.33997 201.56584,173.44385 199.31569,177.33965 197.06578,181.23556 194.81587,185.1315 Z M 230.47004,185.1315 H 243.96791 C 241.71807,181.23554 239.46801,177.33968 237.21793,173.44385 234.96959,177.34029 232.71976,181.23585 230.47004,185.1315 Z M 266.12265,185.1315 H 279.62053 C 277.37025,181.23617 275.12147,177.34 272.87262,173.44385 270.62245,177.33963 268.37256,181.23556 266.12265,185.1315 Z M 156.99751,183.88195 C 159.24728,179.98588 161.49713,176.08984 163.74697,172.1938 H 150.2496 C 152.556,176.18858 154.70052,179.90355 156.99751,183.88195 Z M 210.47849,183.88195 C 212.72472,179.99215 215.05845,175.95038 217.22743,172.1938 H 203.73058 C 205.98079,176.08934 208.22958,179.98567 210.47849,183.88195 Z M 246.13214,183.88195 C 248.38148,179.98575 250.63066,176.09 252.88003,172.1938 H 239.38265 C 241.63251,176.08984 243.88232,179.98588 246.13214,183.88195 Z M 281.78626,183.88195 C 283.99327,180.05946 286.36449,175.95273 288.53471,172.1938 H 275.03734 C 277.28673,176.08997 279.53652,179.98596 281.78626,183.88195 Z M 192.65166,183.88145 C 194.89977,179.98498 197.14947,176.08942 199.39906,172.1938 H 185.90427 C 188.15352,176.08981 190.40242,179.98543 192.65166,183.88145 Z M 228.30479,183.88145 C 230.55428,179.98546 232.80401,176.08963 235.05373,172.1938 H 221.55689 C 223.86921,176.19885 226.03914,179.95741 228.30479,183.88145 Z M 176.27488,175.16364 173.3748,175.16311 V 178.06321 H 176.27488 Z M 265.40948,175.16364 H 262.50942 V 178.06321 H 265.40948 Z"
       id="path849-4-6-4-9-85-8-1-6"
       inkscape:connector-curvature="0"
       sodipodi:nodetypes="cccccccccccccccccccccccccccccccccccccccccccccccccccccccccccccccccccccccccccccccccccccccccccccccccccccccccccccccccccccccccccccccccccccccccccccccccccccccccccccsccccccccccccccc" />
    <path
       style="opacity:1;fill:none;fill-opacity:1;fill-rule:nonzero;stroke:#000010;stroke-width:0.10000001;stroke-linecap:butt;stroke-linejoin:miter;stroke-miterlimit:4;stroke-dasharray:none;stroke-opacity:1;paint-order:normal"
       d="M 1.8567276,287.08766 0.06460056,291.75546 3.7991376,293.18902 2.7598706,295.8964 5.4666066,296.93541 6.5058746,294.22803 11.612421,296.18825 12.946374,296.18826 18.052918,294.22803 19.09219,296.93541 21.79892,295.8964 20.75966,293.18902 24.49419,291.75547 22.70206,287.08767 Z"
       id="rect2449-9-6-0"
       inkscape:connector-curvature="0"
       sodipodi:nodetypes="ccccccccccccccc" />
    <path
       style="opacity:1;fill:none;fill-opacity:1;fill-rule:nonzero;stroke:#000010;stroke-width:0.10000001;stroke-linecap:butt;stroke-linejoin:miter;stroke-miterlimit:4;stroke-dasharray:none;stroke-opacity:1;paint-order:normal"
       d="M 1.8567276,287.08766 0.06460056,282.41986 3.7991376,280.9863 2.7598706,278.27892 5.4666066,277.23991 6.5058746,279.94729 11.612422,277.98707 12.946375,277.98706 18.052919,279.94729 19.092191,277.23991 21.798921,278.27892 20.759661,280.9863 24.494192,282.41985 22.702061,287.08765"
       id="rect2449-9-6-4-4"
       inkscape:connector-curvature="0"
       sodipodi:nodetypes="cccccccccccccc" />
    <path
       style="opacity:1;fill:none;fill-opacity:1;fill-rule:nonzero;stroke:#000010;stroke-width:0.10000001;stroke-linecap:butt;stroke-linejoin:miter;stroke-miterlimit:4;stroke-dasharray:none;stroke-opacity:1;paint-order:normal"
       d="M 1.8567286,266.76978 0.06460156,271.43759 3.7991396,272.87115 2.7598716,275.57853 5.4666076,276.61754 6.5058756,273.91016 11.612422,275.87038 12.946375,275.87039 18.052919,273.91016 19.092191,276.61754 21.798921,275.57853 20.759661,272.87115 24.494192,271.4376 22.702061,266.76979 Z"
       id="rect2449-9-6-8-4"
       inkscape:connector-curvature="0"
       sodipodi:nodetypes="ccccccccccccccc" />
    <path
       style="opacity:1;fill:none;fill-opacity:1;fill-rule:nonzero;stroke:#000010;stroke-width:0.10000001;stroke-linecap:butt;stroke-linejoin:miter;stroke-miterlimit:4;stroke-dasharray:none;stroke-opacity:1;paint-order:normal"
       d="M 1.8567286,266.76978 0.06460156,262.10198 3.7991396,260.66842 2.7598716,257.96104 5.4666076,256.92203 6.5058756,259.62941 11.612423,257.66919 12.946376,257.66918 18.05292,259.62941 19.092192,256.92203 21.798922,257.96104 20.759662,260.66842 24.494192,262.10197 22.702062,266.76977"
       id="rect2449-9-6-4-0-9"
       inkscape:connector-curvature="0"
       sodipodi:nodetypes="cccccccccccccc" />
    <path
       style="opacity:1;fill:none;fill-opacity:1;fill-rule:nonzero;stroke:#000010;stroke-width:0.10000001;stroke-linecap:butt;stroke-linejoin:miter;stroke-miterlimit:4;stroke-dasharray:none;stroke-opacity:1;paint-order:normal"
       d="M 1.8567296,246.4519 0.06460256,251.11971 3.7991396,252.55327 2.7598726,255.26065 5.4666086,256.29966 6.5058776,253.59228 11.612423,255.5525 12.946376,255.55251 18.05292,253.59228 19.092192,256.29966 21.798922,255.26065 20.759662,252.55327 24.494193,251.11972 22.702062,246.45191 Z"
       id="rect2449-9-6-81-6"
       inkscape:connector-curvature="0"
       sodipodi:nodetypes="ccccccccccccccc" />
    <path
       style="opacity:1;fill:none;fill-opacity:1;fill-rule:nonzero;stroke:#000010;stroke-width:0.10000001;stroke-linecap:butt;stroke-linejoin:miter;stroke-miterlimit:4;stroke-dasharray:none;stroke-opacity:1;paint-order:normal"
       d="M 1.8567296,246.4519 0.06460256,241.7841 3.7991396,240.35054 2.7598726,237.64316 5.4666086,236.60415 6.5058776,239.31153 11.612424,237.35131 12.946377,237.3513 18.052921,239.31153 19.092193,236.60415 21.798923,237.64316 20.759663,240.35054 24.494193,241.78409 22.702063,246.45189"
       id="rect2449-9-6-4-02-6"
       inkscape:connector-curvature="0"
       sodipodi:nodetypes="cccccccccccccc" />
    <path
       style="opacity:1;fill:none;fill-opacity:1;fill-rule:nonzero;stroke:#000010;stroke-width:0.10000001;stroke-linecap:butt;stroke-linejoin:miter;stroke-miterlimit:4;stroke-dasharray:none;stroke-opacity:1;paint-order:normal"
       d="M 1.8567306,226.13401 0.06460356,230.80182 3.7991406,232.23538 2.7598736,234.94276 5.4666096,235.98177 6.5058776,233.27439 11.612424,235.23461 12.946377,235.23462 18.052921,233.27439 19.092193,235.98177 21.798923,234.94276 20.759663,232.23538 24.494194,230.80183 22.702063,226.13402 Z"
       id="rect2449-9-6-2-4"
       inkscape:connector-curvature="0"
       sodipodi:nodetypes="ccccccccccccccc" />
    <path
       style="opacity:1;fill:none;fill-opacity:1;fill-rule:nonzero;stroke:#000010;stroke-width:0.10000001;stroke-linecap:butt;stroke-linejoin:miter;stroke-miterlimit:4;stroke-dasharray:none;stroke-opacity:1;paint-order:normal"
       d="M 1.8567306,226.13401 0.06460356,221.46621 3.7991406,220.03265 2.7598736,217.32527 5.4666096,216.28626 6.5058776,218.99364 11.612425,217.03342 12.947092,217.03341 18.053636,218.99364 19.092908,216.28626 21.799638,217.32527 20.760378,220.03265 24.494908,221.4662 22.702778,226.134"
       id="rect2449-9-6-4-9-1"
       inkscape:connector-curvature="0"
       sodipodi:nodetypes="cccccccccccccc" />
    <path
       style="opacity:1;fill:none;fill-opacity:1;fill-rule:nonzero;stroke:#000010;stroke-width:0.10000001;stroke-linecap:butt;stroke-linejoin:miter;stroke-miterlimit:4;stroke-dasharray:none;stroke-opacity:1;paint-order:normal"
       d="M 29.724162,287.08766 27.932036,291.75546 31.666572,293.18902 30.627304,295.8964 33.334042,296.93541 34.373309,294.22803 39.479858,296.18825 40.81381,296.18826 45.920353,294.22803 46.959625,296.93541 49.666355,295.8964 48.627096,293.18902 52.361626,291.75547 50.569494,287.08767 Z"
       id="rect2449-9-6-7-9"
       inkscape:connector-curvature="0"
       sodipodi:nodetypes="ccccccccccccccc" />
    <path
       style="opacity:1;fill:none;fill-opacity:1;fill-rule:nonzero;stroke:#000010;stroke-width:0.10000001;stroke-linecap:butt;stroke-linejoin:miter;stroke-miterlimit:4;stroke-dasharray:none;stroke-opacity:1;paint-order:normal"
       d="M 29.724162,287.08766 27.932036,282.41986 31.666572,280.9863 30.627304,278.27892 33.334042,277.23991 34.373309,279.94729 39.479858,277.98707 40.81381,277.98706 45.920355,279.94729 46.959625,277.23991 49.666358,278.27892 48.627096,280.9863 52.361626,282.41985 50.569497,287.08765"
       id="rect2449-9-6-4-5-8"
       inkscape:connector-curvature="0"
       sodipodi:nodetypes="cccccccccccccc" />
    <path
       style="opacity:1;fill:none;fill-opacity:1;fill-rule:nonzero;stroke:#050000;stroke-width:0.1;stroke-linecap:butt;stroke-linejoin:bevel;stroke-miterlimit:4;stroke-dasharray:none;stroke-opacity:1;paint-order:normal"
       d="M 0.10004999,169.69377 4.9992858e-5,169.69367"
       id="rect9646"
       inkscape:connector-curvature="0"
       sodipodi:nodetypes="cc" />
  </g>
</svg>
