<?xml version="1.0" encoding="UTF-8" standalone="no"?>
<!-- Created with Inkscape (http://www.inkscape.org/) -->

<svg
   xmlns:dc="http://purl.org/dc/elements/1.1/"
   xmlns:cc="http://creativecommons.org/ns#"
   xmlns:rdf="http://www.w3.org/1999/02/22-rdf-syntax-ns#"
   xmlns:svg="http://www.w3.org/2000/svg"
   xmlns="http://www.w3.org/2000/svg"
   xmlns:sodipodi="http://sodipodi.sourceforge.net/DTD/sodipodi-0.dtd"
   xmlns:inkscape="http://www.inkscape.org/namespaces/inkscape"
   width="297mm"
   height="210mm"
   viewBox="0 0 297 210"
   version="1.1"
   id="svg8"
   inkscape:version="0.92.4 5da689c313, 2019-01-14"
   sodipodi:docname="shade-small.2.svg">
  <defs
     id="defs2" />
  <sodipodi:namedview
     id="base"
     pagecolor="#ffffff"
     bordercolor="#666666"
     borderopacity="1.0"
     inkscape:pageopacity="0.0"
     inkscape:pageshadow="2"
     inkscape:zoom="1.0356389"
     inkscape:cx="173.24275"
     inkscape:cy="375.93126"
     inkscape:document-units="mm"
     inkscape:current-layer="layer1"
     showgrid="false"
     inkscape:snap-bbox="true"
     inkscape:snap-smooth-nodes="true"
     inkscape:snap-object-midpoints="true"
     inkscape:snap-center="true"
     inkscape:measure-start="1620.14,372.935"
     inkscape:measure-end="1619.08,247.051"
     showguides="true"
     inkscape:object-paths="true"
     inkscape:window-width="1920"
     inkscape:window-height="1016"
     inkscape:window-x="0"
     inkscape:window-y="27"
     inkscape:window-maximized="1"
     inkscape:bbox-paths="true"
     inkscape:bbox-nodes="true"
     inkscape:snap-bbox-edge-midpoints="true"
     inkscape:lockguides="true"
     inkscape:snap-midpoints="true"
     inkscape:snap-intersection-paths="false"
     inkscape:snap-nodes="true"
     inkscape:snap-others="true" />
  <metadata
     id="metadata5">
    <rdf:RDF>
      <cc:Work
         rdf:about="">
        <dc:format>image/svg+xml</dc:format>
        <dc:type
           rdf:resource="http://purl.org/dc/dcmitype/StillImage" />
        <dc:title />
      </cc:Work>
    </rdf:RDF>
  </metadata>
  <g
     inkscape:label="Calque 1"
     inkscape:groupmode="layer"
     id="layer1"
     transform="translate(0,-87)">
    <path
       style="opacity:1;fill:none;fill-opacity:0.01176471;fill-rule:nonzero;stroke:#0000ff;stroke-width:0.1;stroke-linecap:butt;stroke-linejoin:miter;stroke-miterlimit:4;stroke-dasharray:none;stroke-opacity:1;paint-order:normal"
       d="M 0.00219319,99.827656 H 0.1019287 Z"
       id="path1024"
       inkscape:connector-curvature="0" />
    <path
       style="opacity:1;fill:none;fill-opacity:0.01176471;fill-rule:nonzero;stroke:#000010;stroke-width:0.1;stroke-linecap:butt;stroke-linejoin:miter;stroke-miterlimit:4;stroke-dasharray:none;stroke-opacity:1;paint-order:normal"
       d="M 1.9280477,99.835392 0.05219319,100.91853 V 196.22382 L 1.9270141,197.30644 84.465127,149.65302 84.464611,147.4883 Z M 2.5517822,103.08377 9.1193399,106.87424 2.552299,110.66574 Z M 10.368359,109.04 V 116.62041 L 3.8028686,112.83046 Z M 14.526762,110.84919 17.038236,112.29923 15.589229,114.80916 13.077754,113.35911 Z M 20.686592,114.99467 20.685559,134.49219 3.8028686,124.74498 Z M 23.186698,114.99519 29.754771,118.78772 23.187732,122.57922 Z M 3.2928221,117.33768 H 6.1913534 V 120.23776 H 3.2928221 Z M 33.50338,120.95141 40.071455,124.74343 33.50338,128.53545 Z M 31.005343,120.95245 31.003274,128.53545 24.437268,124.74447 Z M 2.5517822,126.90764 9.1198567,130.70121 2.5517822,134.49322 Z M 41.322542,126.90764 41.320476,170.23316 3.8002847,148.57092 Z M 43.821098,126.90816 50.388138,130.70121 43.821098,134.49271 Z M 23.187215,126.90971 29.753221,130.70069 23.186698,134.49167 Z M 10.369393,132.86645 10.370426,140.44997 7.0853556,138.55344 3.8013184,136.65847 Z M 12.868982,132.86645 19.435506,136.65743 12.868982,140.44842 Z M 51.638191,132.86645 51.639742,140.45048 45.070117,136.65847 Z M 54.138813,132.86697 60.705338,136.65743 54.138298,140.44893 Z M 2.5512654,138.82164 9.1193399,142.61366 2.5512654,146.40568 Z M 43.821098,138.82216 50.388654,142.61366 43.82058,146.40568 Z M 61.955391,138.82267 61.954875,158.31916 45.070117,148.57144 Z M 66.113794,140.63445 68.625267,142.08449 67.17626,144.5939 64.664785,143.14438 Z M 72.273625,144.77994 V 152.3619 L 65.7071,148.57092 Z M 74.774247,144.77994 81.341287,148.5704 74.773731,152.36242 Z M 2.5517822,150.73564 9.1193399,154.52766 2.5528157,158.31864 Z M 43.821098,150.73564 50.389173,154.52766 43.82213,158.31916 Z M 67.175226,152.54742 68.624235,155.05734 66.11276,156.50738 64.663753,153.99746 Z M 54.138298,156.69187 60.706372,160.48389 54.137779,164.27642 Z M 10.369909,156.69239 10.368876,164.27538 3.8023519,160.4844 Z M 12.868982,156.69239 19.437056,160.48337 12.868465,164.2759 Z M 51.639742,156.6929 51.638191,164.2759 45.071667,160.48492 Z M 20.687626,162.64861 20.686592,182.1451 3.8018352,172.39737 Z M 23.186698,162.64861 29.754255,166.44166 23.186698,170.23316 Z M 2.5528157,162.65016 9.1193399,166.44063 2.552299,170.23213 Z M 43.821614,162.65016 50.388654,166.44114 43.821614,170.23213 Z M 31.004309,168.6069 31.004824,176.19042 24.436234,172.39892 Z M 33.503899,168.6069 40.070423,172.39789 33.503899,176.18939 Z M 23.186181,174.5621 29.754771,178.35411 23.185664,182.14665 Z M 3.2907552,176.90769 H 6.1908366 V 179.8057 H 3.2907552 Z M 10.368359,180.52297 V 188.10132 L 3.8039021,184.31292 Z M 15.589229,182.33061 17.037719,184.84209 14.528312,186.2911 13.078271,183.77962 Z M 2.552299,186.47713 9.1188232,190.26811 2.5512654,194.05961 Z"
       id="path1022"
       inkscape:connector-curvature="0" />
    <path
       style="opacity:1;fill:none;fill-opacity:0.01176471;fill-rule:nonzero;stroke:#030000;stroke-width:0.09999998;stroke-linecap:square;stroke-linejoin:miter;stroke-miterlimit:4;stroke-dasharray:none;stroke-opacity:1;paint-order:normal"
       d="M 68.029908,102.72574 68.029768,106.62597 83.181718,112.4424 85.791338,109.54412 83.636028,107.60208 84.938938,106.15506 C 85.290018,105.76514 85.258508,105.16399 84.868598,104.81293 L 84.052208,104.07785 C 83.662298,103.72678 83.061888,103.75823 82.710808,104.14814 L 81.406478,105.59598 79.000108,103.42857 77.168488,102.72579 73.929458,102.72575 73.929088,100.77767 C 73.929088,100.253 73.504188,99.827393 72.979518,99.827403 L 71.880108,99.827443 C 71.355448,99.827433 70.930238,100.25269 70.930228,100.77737 L 70.930218,102.72511 Z"
       id="rect2202-4-9-1-6"
       inkscape:connector-curvature="0"
       sodipodi:nodetypes="ccccccccccccccccccc" />
    <path
       style="opacity:1;fill:none;fill-opacity:0.01176471;fill-rule:nonzero;stroke:#030000;stroke-width:0.09999999;stroke-linecap:square;stroke-linejoin:miter;stroke-miterlimit:4;stroke-dasharray:none;stroke-opacity:1;paint-order:normal"
       d="M 68.029908,112.25077 68.029768,116.151 83.181718,121.96743 85.791338,119.06915 83.636028,117.12711 84.938938,115.68009 C 85.290018,115.29017 85.258508,114.68902 84.868598,114.33796 L 84.052208,113.60288 C 83.662298,113.25181 83.061888,113.28326 82.710808,113.67317 L 81.406478,115.12101 79.000108,112.9536 77.168488,112.25082 73.929458,112.25078 73.929088,110.3027 C 73.929088,109.77803 73.504188,109.35243 72.979518,109.35244 L 71.880108,109.35249 C 71.355448,109.35247 70.930238,109.77772 70.930229,110.3024 L 70.930218,112.25014 Z"
       id="rect2202-4-9-1-6-8"
       inkscape:connector-curvature="0"
       sodipodi:nodetypes="ccccccccccccccccccc" />
    <path
       style="opacity:1;fill:none;fill-opacity:0.01176471;fill-rule:nonzero;stroke:#030000;stroke-width:0.09999999;stroke-linecap:square;stroke-linejoin:miter;stroke-miterlimit:4;stroke-dasharray:none;stroke-opacity:1;paint-order:normal"
       d="M 68.029909,121.77582 68.029769,125.67605 83.181718,131.49248 85.791338,128.5942 83.636028,126.65216 84.938938,125.20514 C 85.290018,124.81522 85.258508,124.21407 84.868598,123.86301 L 84.052208,123.12793 C 83.662298,122.77686 83.061888,122.80831 82.710808,123.19822 L 81.406478,124.64606 79.000108,122.47865 77.168489,121.77587 73.929459,121.77583 73.929089,119.82775 C 73.929089,119.30308 73.504189,118.87748 72.979519,118.87749 L 71.880109,118.87754 C 71.355449,118.87752 70.930238,119.30277 70.930229,119.82745 L 70.930219,121.77519 Z"
       id="rect2202-4-9-1-6-8-1"
       inkscape:connector-curvature="0"
       sodipodi:nodetypes="ccccccccccccccccccc" />
    <path
       style="opacity:1;fill:none;fill-opacity:0.01176471;fill-rule:nonzero;stroke:#030000;stroke-width:0.09999999;stroke-linecap:square;stroke-linejoin:miter;stroke-miterlimit:4;stroke-dasharray:none;stroke-opacity:1;paint-order:normal"
       d="M 68.019608,131.29635 68.019468,135.19658 83.171418,141.01301 85.781038,138.11473 83.625728,136.17269 84.928638,134.72567 C 85.279718,134.33575 85.248208,133.7346 84.858298,133.38354 L 84.041908,132.64846 C 83.651998,132.29739 83.051588,132.32884 82.700508,132.71875 L 81.396178,134.16659 78.989808,131.99918 77.158188,131.2964 73.919158,131.29636 73.918788,129.34828 C 73.918788,128.82361 73.493888,128.39801 72.969218,128.39802 L 71.869808,128.39807 C 71.345148,128.39805 70.919938,128.8233 70.919929,129.34798 L 70.919918,131.29572 Z"
       id="rect2202-4-9-1-6-8-6"
       inkscape:connector-curvature="0"
       sodipodi:nodetypes="ccccccccccccccccccc" />
    <path
       style="opacity:1;fill:none;fill-opacity:0.01176471;fill-rule:nonzero;stroke:#030000;stroke-width:0.09999999;stroke-linecap:square;stroke-linejoin:miter;stroke-miterlimit:4;stroke-dasharray:none;stroke-opacity:1;paint-order:normal"
       d="M 50.147735,102.72574 50.147595,106.62597 65.299545,112.4424 67.909165,109.54412 65.753855,107.60208 67.056765,106.15506 C 67.407845,105.76514 67.376335,105.16399 66.986425,104.81293 L 66.170035,104.07785 C 65.780125,103.72678 65.179715,103.75823 64.828635,104.14814 L 63.524305,105.59598 61.117935,103.42857 59.286315,102.72579 56.047285,102.72575 56.046915,100.77767 C 56.046915,100.253 55.622015,99.827393 55.097345,99.827403 L 53.997935,99.827443 C 53.473275,99.827433 53.048065,100.25269 53.048055,100.77737 L 53.048045,102.72511 Z"
       id="rect2202-4-9-1-6-80"
       inkscape:connector-curvature="0"
       sodipodi:nodetypes="ccccccccccccccccccc" />
    <path
       style="opacity:1;fill:none;fill-opacity:0.01176471;fill-rule:nonzero;stroke:#030000;stroke-width:0.09999999;stroke-linecap:square;stroke-linejoin:miter;stroke-miterlimit:4;stroke-dasharray:none;stroke-opacity:1;paint-order:normal"
       d="M 50.147735,112.25077 50.147595,116.151 65.299545,121.96743 67.909165,119.06915 65.753855,117.12711 67.056765,115.68009 C 67.407845,115.29017 67.376335,114.68902 66.986425,114.33796 L 66.170035,113.60288 C 65.780125,113.25181 65.179715,113.28326 64.828635,113.67317 L 63.524305,115.12101 61.117935,112.9536 59.286315,112.25082 56.047285,112.25078 56.046915,110.3027 C 56.046915,109.77803 55.622015,109.35243 55.097345,109.35244 L 53.997935,109.35249 C 53.473275,109.35247 53.048065,109.77772 53.048056,110.3024 L 53.048045,112.25014 Z"
       id="rect2202-4-9-1-6-8-2"
       inkscape:connector-curvature="0"
       sodipodi:nodetypes="ccccccccccccccccccc" />
    <path
       style="opacity:1;fill:none;fill-opacity:0.01176471;fill-rule:nonzero;stroke:#030000;stroke-width:0.09999999;stroke-linecap:square;stroke-linejoin:miter;stroke-miterlimit:4;stroke-dasharray:none;stroke-opacity:1;paint-order:normal"
       d="M 50.147736,121.77582 50.147596,125.67605 65.299545,131.49248 67.909165,128.5942 65.753855,126.65216 67.056765,125.20514 C 67.407845,124.81522 67.376335,124.21407 66.986425,123.86301 L 66.170035,123.12793 C 65.780125,122.77686 65.179715,122.80831 64.828635,123.19822 L 63.524305,124.64606 61.117935,122.47865 59.286316,121.77587 56.047286,121.77583 56.046916,119.82775 C 56.046916,119.30308 55.622016,118.87748 55.097346,118.87749 L 53.997936,118.87754 C 53.473276,118.87752 53.048065,119.30277 53.048056,119.82745 L 53.048046,121.77519 Z"
       id="rect2202-4-9-1-6-8-1-1"
       inkscape:connector-curvature="0"
       sodipodi:nodetypes="ccccccccccccccccccc" />
    <path
       style="opacity:1;fill:none;fill-opacity:0.01176471;fill-rule:nonzero;stroke:#030000;stroke-width:0.09999999;stroke-linecap:square;stroke-linejoin:miter;stroke-miterlimit:4;stroke-dasharray:none;stroke-opacity:1;paint-order:normal"
       d="M 32.265562,102.72574 32.265422,106.62597 47.417372,112.4424 50.026992,109.54412 47.871682,107.60208 49.174592,106.15506 C 49.525672,105.76514 49.494162,105.16399 49.104252,104.81293 L 48.287862,104.07785 C 47.897952,103.72678 47.297542,103.75823 46.946462,104.14814 L 45.642132,105.59598 43.235762,103.42857 41.404142,102.72579 38.165112,102.72575 38.164742,100.77767 C 38.164742,100.253 37.739842,99.827393 37.215172,99.827403 L 36.115762,99.827453 C 35.591102,99.827433 35.165892,100.25269 35.165882,100.77737 L 35.165872,102.72511 Z"
       id="rect2202-4-9-1-6-80-6"
       inkscape:connector-curvature="0"
       sodipodi:nodetypes="ccccccccccccccccccc" />
    <path
       style="opacity:1;fill:none;fill-opacity:0.01176471;fill-rule:nonzero;stroke:#030000;stroke-width:0.09999999;stroke-linecap:square;stroke-linejoin:miter;stroke-miterlimit:4;stroke-dasharray:none;stroke-opacity:1;paint-order:normal"
       d="M 32.265562,112.25077 32.265422,116.151 47.417372,121.96743 50.026992,119.06915 47.871682,117.12711 49.174592,115.68009 C 49.525672,115.29017 49.494162,114.68902 49.104252,114.33796 L 48.287862,113.60288 C 47.897952,113.25181 47.297542,113.28326 46.946462,113.67317 L 45.642132,115.12101 43.235762,112.9536 41.404142,112.25082 38.165112,112.25078 38.164742,110.3027 C 38.164742,109.77803 37.739842,109.35243 37.215172,109.35244 L 36.115762,109.35249 C 35.591102,109.35247 35.165892,109.77772 35.165883,110.3024 L 35.165872,112.25014 Z"
       id="rect2202-4-9-1-6-8-2-4"
       inkscape:connector-curvature="0"
       sodipodi:nodetypes="ccccccccccccccccccc" />
    <path
       style="opacity:1;fill:none;fill-opacity:0.01176471;fill-rule:nonzero;stroke:#000010;stroke-width:0.1;stroke-linecap:butt;stroke-linejoin:miter;stroke-miterlimit:4;stroke-dasharray:none;stroke-opacity:1;paint-order:normal"
       d="M 57.917928,164.98025 57.860566,165.07947 C 57.859693,165.08097 57.86009,165.08273 57.861598,165.0836 L 86.341004,181.52601 V 150.73616 L 84.465134,149.65302 M 71.866417,160.66682 73.315434,163.17674 70.803956,164.62678 69.354939,162.11686 Z M 80.201824,167.15531 H 83.100361 V 170.05539 H 80.201824 Z"
       id="path1837"
       inkscape:connector-curvature="0"
       sodipodi:nodetypes="cccccccccccccccc" />
    <path
       style="opacity:1;fill:none;fill-opacity:0.01176471;fill-rule:nonzero;stroke:#000010;stroke-width:0.1;stroke-linecap:butt;stroke-linejoin:miter;stroke-miterlimit:4;stroke-dasharray:none;stroke-opacity:1;paint-order:normal"
       d="M 1.9285762,197.30592 1.928047,199.47065 28.721766,214.93999 V 181.83658 M 20.279388,190.45208 21.728405,192.962 19.216927,194.41153 17.76791,191.90212 Z M 19.217959,202.36505 21.729437,203.81509 20.28042,206.32501 17.768942,204.87497 Z"
       id="path1827"
       inkscape:connector-curvature="0"
       sodipodi:nodetypes="cccccccccccccc" />
    <path
       style="opacity:1;fill:none;fill-opacity:0.01176471;fill-rule:nonzero;stroke:#000010;stroke-width:0.1;stroke-linecap:butt;stroke-linejoin:miter;stroke-miterlimit:4;stroke-dasharray:none;stroke-opacity:1;paint-order:normal"
       d="M 86.43451,215.17097 57.871893,231.66144 84.559672,247.0698 86.43451,245.98718 Z M 80.295859,226.67105 H 83.19593 V 229.56906 H 80.295859 Z M 70.897462,232.09397 73.408411,233.54298 71.958388,236.05445 69.448974,234.60545 Z"
       id="path1823"
       inkscape:connector-curvature="0" />
    <path
       style="opacity:1;fill:none;fill-opacity:0.01176471;fill-rule:nonzero;stroke:#000010;stroke-width:0.09999998;stroke-linecap:butt;stroke-linejoin:miter;stroke-miterlimit:4;stroke-dasharray:none;stroke-opacity:1;paint-order:normal"
       d="M 52.6283,168.10202 V 169.86212 C 38.99829,172.21082 28.6286,184.08866 28.62874,198.38958 28.62882,201.8961 29.25241,205.25676 30.39451,208.36725 L 28.72176,209.3331 M 28.721766,214.93999 33.80052,217.83232 35.35185,216.93677 C 40.66236,223.29377 48.64738,227.33931 57.57839,227.33922 66.50911,227.33933 74.49444,223.29397 79.80495,216.93727 L 81.59036,217.96771 M 86.43451,215.17097 V 209.3331 L 84.76226,208.36778 C 85.90447,205.25714 86.52851,201.89628 86.52857,198.38958 86.52872,184.0883 76.15846,172.21041 62.52797,169.86212 V 167.7775 M 57.57839,178.43886 C 68.59654,178.43874 77.52821,187.37079 77.52808,198.38906 77.52792,209.40714 68.59632,218.33888 57.57839,218.33875 46.56048,218.33886 37.62838,209.40713 37.62819,198.38906 37.62806,187.3708 46.56026,178.43875 57.57839,178.43886 Z"
       id="path1829-3"
       inkscape:connector-curvature="0"
       sodipodi:nodetypes="cccccccccccccccccccccc" />
  </g>
</svg>
